
     Program PWSCF v.6.4.1 starts on 16Nov2019 at  1:42:56 

     This program is part of the open-source Quantum ESPRESSO suite
     for quantum simulation of materials; please cite
         "P. Giannozzi et al., J. Phys.:Condens. Matter 21 395502 (2009);
         "P. Giannozzi et al., J. Phys.:Condens. Matter 29 465901 (2017);
          URL http://www.quantum-espresso.org", 
     in publications or presentations arising from this work. More details at
     http://www.quantum-espresso.org/quote

     Serial version
     Waiting for input...
     Reading input from standard input

     Current dimensions of program PWSCF are:
     Max number of different atomic species (ntypx) = 10
     Max number of k-points (npk) =  40000
     Max angular momentum in pseudopotentials (lmaxx) =  3
               file C.pbe-n-kjpaw_psl.1.0.0.UPF: wavefunction(s)  2S 2P renormalized

     G-vector sticks info
     --------------------
     sticks:   dense  smooth     PW     G-vecs:    dense   smooth      PW
     Sum         241     241     85                 8139     8139    1625



     bravais-lattice index     =            4
     lattice parameter (alat)  =       4.6487  a.u.
     unit-cell volume          =     236.9585 (a.u.)^3
     number of atoms/cell      =            4
     number of atomic types    =            1
     number of electrons       =        16.00
     number of Kohn-Sham states=            8
     kinetic-energy cutoff     =      40.0000  Ry
     charge density cutoff     =     160.0000  Ry
     convergence threshold     =      1.0E-08
     mixing beta               =       0.7000
     number of iterations used =            8  plain     mixing
     Exchange-correlation      = SLA PW PBX PBC ( 1  4  3  4 0 0)

     celldm(1)=   4.648726  celldm(2)=   0.000000  celldm(3)=   2.723577
     celldm(4)=   0.000000  celldm(5)=   0.000000  celldm(6)=   0.000000

     crystal axes: (cart. coord. in units of alat)
               a(1) = (   1.000000   0.000000   0.000000 )  
               a(2) = (  -0.500000   0.866025   0.000000 )  
               a(3) = (   0.000000   0.000000   2.723577 )  

     reciprocal axes: (cart. coord. in units 2 pi/alat)
               b(1) = (  1.000000  0.577350 -0.000000 )  
               b(2) = (  0.000000  1.154701  0.000000 )  
               b(3) = (  0.000000 -0.000000  0.367164 )  


     PseudoPot. # 1 for C  read from file:
     ./C.pbe-n-kjpaw_psl.1.0.0.UPF
     MD5 check sum: 5f16ad9a65e90284d1d834d4ab3b0f7d
     Pseudo is Projector augmented-wave + core cor, Zval =  4.0
     Generated using "atomic" code by A. Dal Corso v.6.3
     Shape of augmentation charge: PSQ
     Using radial grid of 1073 points,  4 beta functions with: 
                l(1) =   0
                l(2) =   0
                l(3) =   1
                l(4) =   1
     Q(r) pseudized with 0 coefficients 


     atomic species   valence    mass     pseudopotential
        C              4.00    12.01100     C ( 1.00)

     24 Sym. Ops., with inversion, found (12 have fractional translation)



   Cartesian axes

     site n.     atom                  positions (alat units)
         1           C   tau(   1) = (   0.0000000   0.0000000   0.6808943  )
         2           C   tau(   2) = (   0.0000000   0.0000000   2.0426829  )
         3           C   tau(   3) = (   0.0000000   0.5773503   0.6808943  )
         4           C   tau(   4) = (   0.5000000   0.2886751   2.0426829  )

     number of k points=    12
                       cart. coord. in units 2pi/alat
        k(    1) = (   0.1250000   0.2165064   0.0458955), wk =   0.1250000
        k(    2) = (   0.1250000   0.2165064   0.1376866), wk =   0.1250000
        k(    3) = (   0.1250000   0.5051815   0.0458955), wk =   0.2500000
        k(    4) = (   0.1250000   0.5051815   0.1376866), wk =   0.2500000
        k(    5) = (   0.1250000  -0.3608439   0.0458955), wk =   0.2500000
        k(    6) = (   0.1250000  -0.3608439   0.1376866), wk =   0.2500000
        k(    7) = (   0.1250000  -0.0721688   0.0458955), wk =   0.1250000
        k(    8) = (   0.1250000  -0.0721688   0.1376866), wk =   0.1250000
        k(    9) = (   0.3750000   0.6495191   0.0458955), wk =   0.1250000
        k(   10) = (   0.3750000   0.6495191   0.1376866), wk =   0.1250000
        k(   11) = (   0.3750000  -0.2165064   0.0458955), wk =   0.1250000
        k(   12) = (   0.3750000  -0.2165064   0.1376866), wk =   0.1250000

     Dense  grid:     8139 G-vectors     FFT dimensions: (  20,  20,  54)

     Estimated max dynamical RAM per process >      13.02 MB

     Check: negative core charge=   -0.000045

     Initial potential from superposition of free atoms

     starting charge   15.99983, renormalised to   16.00000
     Starting wfcs are   16 randomized atomic wfcs

     total cpu time spent up to now is        0.5 secs

     Self-consistent Calculation

     iteration #  1     ecut=    40.00 Ry     beta= 0.70
     Davidson diagonalization with overlap
     ethr =  1.00E-02,  avg # of iterations =  2.0

     total cpu time spent up to now is        0.8 secs

     total energy              =     -73.70671889 Ry
     Harris-Foulkes estimate   =     -73.93837162 Ry
     estimated scf accuracy    <       0.39093918 Ry

     iteration #  2     ecut=    40.00 Ry     beta= 0.70
     Davidson diagonalization with overlap
     ethr =  2.44E-03,  avg # of iterations =  2.0

     total cpu time spent up to now is        1.1 secs

     total energy              =     -73.76696509 Ry
     Harris-Foulkes estimate   =     -73.76736577 Ry
     estimated scf accuracy    <       0.00441239 Ry

     iteration #  3     ecut=    40.00 Ry     beta= 0.70
     Davidson diagonalization with overlap
     ethr =  2.76E-05,  avg # of iterations =  2.2

     total cpu time spent up to now is        1.4 secs

     total energy              =     -73.76750559 Ry
     Harris-Foulkes estimate   =     -73.76747539 Ry
     estimated scf accuracy    <       0.00032460 Ry

     iteration #  4     ecut=    40.00 Ry     beta= 0.70
     Davidson diagonalization with overlap
     ethr =  2.03E-06,  avg # of iterations =  2.0

     total cpu time spent up to now is        1.6 secs

     total energy              =     -73.76754673 Ry
     Harris-Foulkes estimate   =     -73.76754616 Ry
     estimated scf accuracy    <       0.00000076 Ry

     iteration #  5     ecut=    40.00 Ry     beta= 0.70
     Davidson diagonalization with overlap
     ethr =  4.73E-09,  avg # of iterations =  4.1

     total cpu time spent up to now is        2.0 secs

     total energy              =     -73.76754909 Ry
     Harris-Foulkes estimate   =     -73.76754913 Ry
     estimated scf accuracy    <       0.00000016 Ry

     iteration #  6     ecut=    40.00 Ry     beta= 0.70
     Davidson diagonalization with overlap
     ethr =  1.00E-09,  avg # of iterations =  3.0

     total cpu time spent up to now is        2.3 secs

     total energy              =     -73.76754914 Ry
     Harris-Foulkes estimate   =     -73.76754915 Ry
     estimated scf accuracy    <       0.00000006 Ry

     iteration #  7     ecut=    40.00 Ry     beta= 0.70
     Davidson diagonalization with overlap
     ethr =  3.52E-10,  avg # of iterations =  2.8

     total cpu time spent up to now is        2.6 secs

     End of self-consistent calculation

          k = 0.1250 0.2165 0.0459 (  1019 PWs)   bands (ev):

   -11.5127 -11.2523  -0.0805   0.8379   0.8787   1.6533   1.9180   1.9467

          k = 0.1250 0.2165 0.1377 (  1015 PWs)   bands (ev):

   -11.4395 -11.3316   0.3695   0.8498   0.8677   1.0789   1.9258   1.9375

          k = 0.1250 0.5052 0.0459 (  1010 PWs)   bands (ev):

    -7.9547  -7.7588  -5.0305  -4.8823  -0.4036  -0.3288   3.9385   5.0536

          k = 0.1250 0.5052 0.1377 (  1013 PWs)   bands (ev):

    -7.8989  -7.8178  -4.9885  -4.9270  -0.3819  -0.3510   4.2594   4.7244

          k = 0.1250-0.3608 0.0459 (  1013 PWs)   bands (ev):

   -10.0520  -9.8159  -1.9934  -1.8908   0.3738   0.4371   1.6515   3.2348

          k = 0.1250-0.3608 0.1377 (  1011 PWs)   bands (ev):

    -9.9853  -9.8875  -1.9636  -1.9210   0.3916   0.4178   2.0677   2.7164

          k = 0.1250-0.0722 0.0459 (  1020 PWs)   bands (ev):

   -12.2545 -11.9816  -0.9758   0.8176   2.6457   2.6900   3.3304   3.3623

          k = 0.1250-0.0722 0.1377 (  1011 PWs)   bands (ev):

   -12.1779 -12.0650  -0.5118   0.2205   2.6588   2.6770   3.3397   3.3530

          k = 0.3750 0.6495 0.0459 (   998 PWs)   bands (ev):

    -6.3177  -6.2224  -5.4122  -5.3708  -2.7377  -2.6421   5.6654   6.2749

          k = 0.3750 0.6495 0.1377 (  1001 PWs)   bands (ev):

    -6.2864  -6.2465  -5.4058  -5.3882  -2.7111  -2.6715   5.8996   6.1655

          k = 0.3750-0.2165 0.0459 (  1012 PWs)   bands (ev):

    -9.3347  -9.1107  -3.7132  -3.5744   0.9892   1.0390   2.4511   3.9031

          k = 0.3750-0.2165 0.1377 (  1017 PWs)   bands (ev):

    -9.2713  -9.1786  -3.6737  -3.6160   1.0038   1.0244   2.8397   3.4369

     highest occupied level (ev):     6.2749

!    total energy              =     -73.76754915 Ry
     Harris-Foulkes estimate   =     -73.76754915 Ry
     estimated scf accuracy    <          7.5E-10 Ry

     total all-electron energy =      -304.823938 Ry

     The total energy is the sum of the following terms:

     one-electron contribution =     -10.09478750 Ry
     hartree contribution      =      13.47951515 Ry
     xc contribution           =     -18.58192132 Ry
     ewald contribution        =     -33.90102907 Ry
     one-center paw contrib.   =     -24.66932641 Ry

     convergence has been achieved in   7 iterations

     Writing output data file pwscf.save/

     init_run     :      0.31s CPU      0.32s WALL (       1 calls)
     electrons    :      2.07s CPU      2.07s WALL (       1 calls)

     Called by init_run:
     wfcinit      :      0.11s CPU      0.11s WALL (       1 calls)
     potinit      :      0.11s CPU      0.11s WALL (       1 calls)
     hinit0       :      0.09s CPU      0.09s WALL (       1 calls)

     Called by electrons:
     c_bands      :      1.19s CPU      1.19s WALL (       7 calls)
     sum_band     :      0.19s CPU      0.19s WALL (       7 calls)
     v_of_rho     :      0.06s CPU      0.06s WALL (       8 calls)
     newd         :      0.04s CPU      0.04s WALL (       8 calls)
     PAW_pot      :      0.69s CPU      0.69s WALL (       8 calls)
     mix_rho      :      0.00s CPU      0.00s WALL (       7 calls)

     Called by c_bands:
     init_us_2    :      0.03s CPU      0.03s WALL (     180 calls)
     cegterg      :      1.15s CPU      1.15s WALL (      84 calls)

     Called by sum_band:
     sum_band:bec :      0.00s CPU      0.00s WALL (      84 calls)
     addusdens    :      0.02s CPU      0.02s WALL (       7 calls)

     Called by *egterg:
     h_psi        :      0.96s CPU      0.96s WALL (     314 calls)
     s_psi        :      0.10s CPU      0.10s WALL (     314 calls)
     g_psi        :      0.00s CPU      0.00s WALL (     218 calls)
     cdiaghg      :      0.03s CPU      0.03s WALL (     302 calls)

     Called by h_psi:
     h_psi:pot    :      0.95s CPU      0.95s WALL (     314 calls)
     h_psi:calbec :      0.08s CPU      0.08s WALL (     314 calls)
     vloc_psi     :      0.77s CPU      0.77s WALL (     314 calls)
     add_vuspsi   :      0.10s CPU      0.10s WALL (     314 calls)

     General routines
     calbec       :      0.10s CPU      0.10s WALL (     398 calls)
     fft          :      0.02s CPU      0.02s WALL (      88 calls)
     ffts         :      0.00s CPU      0.00s WALL (       7 calls)
     fftw         :      0.82s CPU      0.82s WALL (    5050 calls)


     PWSCF        :      2.60s CPU      2.61s WALL


   This run was terminated on:   1:42:59  16Nov2019            

=------------------------------------------------------------------------------=
   JOB DONE.
=------------------------------------------------------------------------------=
