
     Program PWSCF v.6.4.1 starts on 16Nov2019 at 12:44:23 

     This program is part of the open-source Quantum ESPRESSO suite
     for quantum simulation of materials; please cite
         "P. Giannozzi et al., J. Phys.:Condens. Matter 21 395502 (2009);
         "P. Giannozzi et al., J. Phys.:Condens. Matter 29 465901 (2017);
          URL http://www.quantum-espresso.org", 
     in publications or presentations arising from this work. More details at
     http://www.quantum-espresso.org/quote

     Serial version
     Waiting for input...
     Reading input from standard input

     Current dimensions of program PWSCF are:
     Max number of different atomic species (ntypx) = 10
     Max number of k-points (npk) =  40000
     Max angular momentum in pseudopotentials (lmaxx) =  3
               file Al.pbe-nl-kjpaw_psl.1.0.0.UPF: wavefunction(s)  3S 3P renormalized
     Found symmetry operation: I + (  0.5000  0.0000  0.0000)
     This is a supercell, fractional translations are disabled
     Message from routine setup:
     DEPRECATED: symmetry with ibrav=0, use correct ibrav instead

     G-vector sticks info
     --------------------
     sticks:   dense  smooth     PW     G-vecs:    dense   smooth      PW
     Sum        2161    2161    577                75421    75421   10395



     bravais-lattice index     =            0
     lattice parameter (alat)  =      15.2801  a.u.
     unit-cell volume          =    3567.6138 (a.u.)^3
     number of atoms/cell      =           32
     number of atomic types    =            1
     number of electrons       =        96.00
     number of Kohn-Sham states=           58
     kinetic-energy cutoff     =      29.0000  Ry
     charge density cutoff     =     116.0000  Ry
     convergence threshold     =      1.0E-09
     mixing beta               =       0.7000
     number of iterations used =            8  plain     mixing
     Exchange-correlation      = SLA PW PBX PBC ( 1  4  3  4 0 0)

     celldm(1)=  15.280091  celldm(2)=   0.000000  celldm(3)=   0.000000
     celldm(4)=   0.000000  celldm(5)=   0.000000  celldm(6)=   0.000000

     crystal axes: (cart. coord. in units of alat)
               a(1) = (   1.000000   0.000000   0.000000 )  
               a(2) = (   0.000000   1.000000   0.000000 )  
               a(3) = (   0.000000   0.000000   1.000000 )  

     reciprocal axes: (cart. coord. in units 2 pi/alat)
               b(1) = (  1.000000  0.000000  0.000000 )  
               b(2) = (  0.000000  1.000000  0.000000 )  
               b(3) = (  0.000000  0.000000  1.000000 )  


     PseudoPot. # 1 for Al read from file:
     ./Al.pbe-nl-kjpaw_psl.1.0.0.UPF
     MD5 check sum: 8cf6d98cc7ef3f4b729b574060f3a10f
     Pseudo is Projector augmented-wave + core cor, Zval =  3.0
     Generated using "atomic" code by A. Dal Corso v.6.3
     Shape of augmentation charge: PSQ
     Using radial grid of 1135 points,  4 beta functions with: 
                l(1) =   0
                l(2) =   0
                l(3) =   1
                l(4) =   1
     Q(r) pseudized with 0 coefficients 


     atomic species   valence    mass     pseudopotential
        Al             3.00    26.98154     Al( 1.00)

     48 Sym. Ops., with inversion, found



   Cartesian axes

     site n.     atom                  positions (alat units)
         1           Al  tau(   1) = (   0.0000000   0.0000000   0.0000000  )
         2           Al  tau(   2) = (   0.5000000   0.0000000   0.0000000  )
         3           Al  tau(   3) = (   0.0000000   0.5000000   0.0000000  )
         4           Al  tau(   4) = (   0.5000000   0.5000000   0.0000000  )
         5           Al  tau(   5) = (   0.0000000   0.0000000   0.5000000  )
         6           Al  tau(   6) = (   0.5000000   0.0000000   0.5000000  )
         7           Al  tau(   7) = (   0.0000000   0.5000000   0.5000000  )
         8           Al  tau(   8) = (   0.5000000   0.5000000   0.5000000  )
         9           Al  tau(   9) = (   0.2500000   0.2500000   0.0000000  )
        10           Al  tau(  10) = (   0.7500000   0.2500000   0.0000000  )
        11           Al  tau(  11) = (   0.2500000   0.7500000   0.0000000  )
        12           Al  tau(  12) = (   0.7500000   0.7500000   0.0000000  )
        13           Al  tau(  13) = (   0.2500000   0.2500000   0.5000000  )
        14           Al  tau(  14) = (   0.7500000   0.2500000   0.5000000  )
        15           Al  tau(  15) = (   0.2500000   0.7500000   0.5000000  )
        16           Al  tau(  16) = (   0.7500000   0.7500000   0.5000000  )
        17           Al  tau(  17) = (   0.0000000   0.2500000   0.2500000  )
        18           Al  tau(  18) = (   0.5000000   0.2500000   0.2500000  )
        19           Al  tau(  19) = (   0.0000000   0.7500000   0.2500000  )
        20           Al  tau(  20) = (   0.5000000   0.7500000   0.2500000  )
        21           Al  tau(  21) = (   0.0000000   0.2500000   0.7500000  )
        22           Al  tau(  22) = (   0.5000000   0.2500000   0.7500000  )
        23           Al  tau(  23) = (   0.0000000   0.7500000   0.7500000  )
        24           Al  tau(  24) = (   0.5000000   0.7500000   0.7500000  )
        25           Al  tau(  25) = (   0.2500000   0.0000000   0.2500000  )
        26           Al  tau(  26) = (   0.7500000   0.0000000   0.2500000  )
        27           Al  tau(  27) = (   0.2500000   0.5000000   0.2500000  )
        28           Al  tau(  28) = (   0.7500000   0.5000000   0.2500000  )
        29           Al  tau(  29) = (   0.2500000   0.0000000   0.7500000  )
        30           Al  tau(  30) = (   0.7500000   0.0000000   0.7500000  )
        31           Al  tau(  31) = (   0.2500000   0.5000000   0.7500000  )
        32           Al  tau(  32) = (   0.7500000   0.5000000   0.7500000  )

     number of k points=     1  Methfessel-Paxton smearing, width (Ry)=  0.1000
                       cart. coord. in units 2pi/alat
        k(    1) = (   0.2500000   0.2500000   0.2500000), wk =   2.0000000

     Dense  grid:    75421 G-vectors     FFT dimensions: (  54,  54,  54)

     Estimated max dynamical RAM per process >     246.12 MB

     Initial potential from superposition of free atoms

     starting charge   95.92671, renormalised to   96.00000
     Starting wfcs are  128 randomized atomic wfcs

     total cpu time spent up to now is        4.0 secs

     Self-consistent Calculation

     iteration #  1     ecut=    29.00 Ry     beta= 0.70
     Davidson diagonalization with overlap
     ethr =  1.00E-02,  avg # of iterations =  3.0

     Threshold (ethr) on eigenvalues was too large:
     Diagonalizing with lowered threshold

     Davidson diagonalization with overlap
     ethr =  1.93E-04,  avg # of iterations =  5.0

     total cpu time spent up to now is       13.0 secs

     total energy              =   -1264.07260736 Ry
     Harris-Foulkes estimate   =   -1264.11820135 Ry
     estimated scf accuracy    <       0.17989718 Ry

     iteration #  2     ecut=    29.00 Ry     beta= 0.70
     Davidson diagonalization with overlap
     ethr =  1.87E-04,  avg # of iterations =  1.0

     total cpu time spent up to now is       16.6 secs

     total energy              =   -1264.07137036 Ry
     Harris-Foulkes estimate   =   -1264.07473464 Ry
     estimated scf accuracy    <       0.01355824 Ry

     iteration #  3     ecut=    29.00 Ry     beta= 0.70
     Davidson diagonalization with overlap
     ethr =  1.41E-05,  avg # of iterations =  2.0

     total cpu time spent up to now is       20.6 secs

     total energy              =   -1264.07246126 Ry
     Harris-Foulkes estimate   =   -1264.07255552 Ry
     estimated scf accuracy    <       0.00015240 Ry

     iteration #  4     ecut=    29.00 Ry     beta= 0.70
     Davidson diagonalization with overlap
     ethr =  1.59E-07,  avg # of iterations =  6.0

     total cpu time spent up to now is       27.6 secs

     total energy              =   -1264.07254225 Ry
     Harris-Foulkes estimate   =   -1264.07273823 Ry
     estimated scf accuracy    <       0.00071099 Ry

     iteration #  5     ecut=    29.00 Ry     beta= 0.70
     Davidson diagonalization with overlap
     ethr =  1.59E-07,  avg # of iterations =  4.0

     total cpu time spent up to now is       32.4 secs

     total energy              =   -1264.07264130 Ry
     Harris-Foulkes estimate   =   -1264.07265140 Ry
     estimated scf accuracy    <       0.00003579 Ry

     iteration #  6     ecut=    29.00 Ry     beta= 0.70
     Davidson diagonalization with overlap
     ethr =  3.73E-08,  avg # of iterations =  3.0

     total cpu time spent up to now is       36.9 secs

     total energy              =   -1264.07264589 Ry
     Harris-Foulkes estimate   =   -1264.07264893 Ry
     estimated scf accuracy    <       0.00000799 Ry

     iteration #  7     ecut=    29.00 Ry     beta= 0.70
     Davidson diagonalization with overlap
     ethr =  8.32E-09,  avg # of iterations =  4.0

     total cpu time spent up to now is       41.5 secs

     total energy              =   -1264.07264736 Ry
     Harris-Foulkes estimate   =   -1264.07264758 Ry
     estimated scf accuracy    <       0.00000113 Ry

     iteration #  8     ecut=    29.00 Ry     beta= 0.70
     Davidson diagonalization with overlap
     ethr =  1.18E-09,  avg # of iterations =  3.0

     total cpu time spent up to now is       45.4 secs

     total energy              =   -1264.07264733 Ry
     Harris-Foulkes estimate   =   -1264.07264742 Ry
     estimated scf accuracy    <       0.00000037 Ry

     iteration #  9     ecut=    29.00 Ry     beta= 0.70
     Davidson diagonalization with overlap
     ethr =  3.85E-10,  avg # of iterations =  4.0

     total cpu time spent up to now is       49.7 secs

     total energy              =   -1264.07264736 Ry
     Harris-Foulkes estimate   =   -1264.07264737 Ry
     estimated scf accuracy    <       0.00000001 Ry

     iteration # 10     ecut=    29.00 Ry     beta= 0.70
     Davidson diagonalization with overlap
     ethr =  1.11E-11,  avg # of iterations =  5.0

     total cpu time spent up to now is       55.8 secs

     End of self-consistent calculation

          k = 0.2500 0.2500 0.2500 (  9390 PWs)   bands (ev):

    -2.8135  -1.6891  -1.6891  -1.6882  -0.5731  -0.5731  -0.5722   0.5330
     0.5330   0.5339   0.5350   1.6318   1.6322   1.6322   1.6327   1.6327
     1.6330   2.7218   2.7218   2.7219   3.7659   3.7659   3.7660   3.8006
     3.8006   3.8015   4.8325   4.8328   4.8328   4.8334   4.8334   4.8337
     4.8962   4.8962   4.8962   5.9182   5.9182   5.9191   6.9659   6.9659
     6.9659   6.9664   6.9665   6.9665   7.0287   8.0302   8.0303   8.0303
     8.0308   8.0308   8.0308   8.2678   8.2678   8.2679   9.3515   9.3515
     9.3517   9.3521

     the Fermi energy is     7.8972 ev

!    total energy              =   -1264.07264736 Ry
     Harris-Foulkes estimate   =   -1264.07264736 Ry
     estimated scf accuracy    <          2.1E-10 Ry

     total all-electron energy =    -15540.641624 Ry

     The total energy is the sum of the following terms:

     one-electron contribution =     101.27679795 Ry
     hartree contribution      =       0.20499894 Ry
     xc contribution           =     -82.89418067 Ry
     ewald contribution        =    -172.83146636 Ry
     one-center paw contrib.   =   -1109.68222611 Ry
     smearing contrib. (-TS)   =      -0.14657111 Ry

     convergence has been achieved in  10 iterations

     Forces acting on atoms (cartesian axes, Ry/au):

     atom    1 type  1   force =     0.00000000    0.00000000    0.00000000
     atom    2 type  1   force =     0.00000000    0.00000000    0.00000000
     atom    3 type  1   force =     0.00000000    0.00000000    0.00000000
     atom    4 type  1   force =     0.00000000    0.00000000    0.00000000
     atom    5 type  1   force =     0.00000000    0.00000000    0.00000000
     atom    6 type  1   force =     0.00000000    0.00000000    0.00000000
     atom    7 type  1   force =     0.00000000    0.00000000    0.00000000
     atom    8 type  1   force =     0.00000000    0.00000000    0.00000000
     atom    9 type  1   force =    -0.00006649   -0.00006649    0.00000000
     atom   10 type  1   force =     0.00006649   -0.00006649   -0.00000000
     atom   11 type  1   force =    -0.00006649    0.00006649   -0.00000000
     atom   12 type  1   force =     0.00006649    0.00006649    0.00000000
     atom   13 type  1   force =     0.00006601    0.00006601    0.00000000
     atom   14 type  1   force =    -0.00006601    0.00006601   -0.00000000
     atom   15 type  1   force =     0.00006601   -0.00006601    0.00000000
     atom   16 type  1   force =    -0.00006601   -0.00006601   -0.00000000
     atom   17 type  1   force =    -0.00000000   -0.00006649   -0.00006649
     atom   18 type  1   force =     0.00000000    0.00006601    0.00006601
     atom   19 type  1   force =     0.00000000    0.00006649   -0.00006649
     atom   20 type  1   force =    -0.00000000   -0.00006601    0.00006601
     atom   21 type  1   force =     0.00000000   -0.00006649    0.00006649
     atom   22 type  1   force =     0.00000000    0.00006601   -0.00006601
     atom   23 type  1   force =     0.00000000    0.00006649    0.00006649
     atom   24 type  1   force =    -0.00000000   -0.00006601   -0.00006601
     atom   25 type  1   force =    -0.00006649    0.00000000   -0.00006649
     atom   26 type  1   force =     0.00006649   -0.00000000   -0.00006649
     atom   27 type  1   force =     0.00006601   -0.00000000    0.00006601
     atom   28 type  1   force =    -0.00006601    0.00000000    0.00006601
     atom   29 type  1   force =    -0.00006649    0.00000000    0.00006649
     atom   30 type  1   force =     0.00006649    0.00000000    0.00006649
     atom   31 type  1   force =     0.00006601   -0.00000000   -0.00006601
     atom   32 type  1   force =    -0.00006601    0.00000000   -0.00006601

     Total force =     0.000459     Total SCF correction =     0.000009


     Computing stress (Cartesian axis) and pressure

          total   stress  (Ry/bohr**3)                   (kbar)     P=    1.48
   0.00001009   0.00000000   0.00000000          1.48      0.00      0.00
   0.00000000   0.00001009   0.00000000          0.00      1.48      0.00
   0.00000000   0.00000000   0.00001009          0.00      0.00      1.48


     Writing output data file pwscf.save/

     init_run     :      3.68s CPU      3.73s WALL (       1 calls)
     electrons    :     51.01s CPU     51.79s WALL (       1 calls)
     forces       :      1.86s CPU      1.91s WALL (       1 calls)
     stress       :      1.92s CPU      1.97s WALL (       1 calls)

     Called by init_run:
     wfcinit      :      2.40s CPU      2.41s WALL (       1 calls)
     potinit      :      0.81s CPU      0.81s WALL (       1 calls)
     hinit0       :      0.22s CPU      0.22s WALL (       1 calls)

     Called by electrons:
     c_bands      :     35.48s CPU     35.76s WALL (      11 calls)
     sum_band     :      5.14s CPU      5.40s WALL (      11 calls)
     v_of_rho     :      0.61s CPU      0.61s WALL (      11 calls)
     newd         :      2.46s CPU      2.73s WALL (      11 calls)
     PAW_pot      :      8.21s CPU      8.21s WALL (      11 calls)
     mix_rho      :      0.10s CPU      0.10s WALL (      11 calls)

     Called by c_bands:
     init_us_2    :      0.13s CPU      0.14s WALL (      23 calls)
     cegterg      :     35.14s CPU     35.42s WALL (      11 calls)

     Called by sum_band:
     sum_band:bec :      0.00s CPU      0.00s WALL (      11 calls)
     addusdens    :      1.66s CPU      1.91s WALL (      11 calls)

     Called by *egterg:
     h_psi        :     20.21s CPU     20.30s WALL (      52 calls)
     s_psi        :      7.31s CPU      7.32s WALL (      52 calls)
     g_psi        :      0.03s CPU      0.03s WALL (      40 calls)
     cdiaghg      :      0.47s CPU      0.47s WALL (      50 calls)

     Called by h_psi:
     h_psi:pot    :     20.16s CPU     20.19s WALL (      52 calls)
     h_psi:calbec :      6.96s CPU      6.97s WALL (      52 calls)
     vloc_psi     :      5.85s CPU      5.88s WALL (      52 calls)
     add_vuspsi   :      7.34s CPU      7.34s WALL (      52 calls)

     General routines
     calbec       :     10.31s CPU     10.31s WALL (      68 calls)
     fft          :      0.35s CPU      0.35s WALL (     147 calls)
     ffts         :      0.03s CPU      0.03s WALL (      11 calls)
     fftw         :      6.15s CPU      6.17s WALL (    4506 calls)


     PWSCF        :     58.73s CPU     59.67s WALL


   This run was terminated on:  12:45:22  16Nov2019            

=------------------------------------------------------------------------------=
   JOB DONE.
=------------------------------------------------------------------------------=
