
     Program PWSCF v.6.4.1 starts on 14Nov2019 at 18:56: 3 

     This program is part of the open-source Quantum ESPRESSO suite
     for quantum simulation of materials; please cite
         "P. Giannozzi et al., J. Phys.:Condens. Matter 21 395502 (2009);
         "P. Giannozzi et al., J. Phys.:Condens. Matter 29 465901 (2017);
          URL http://www.quantum-espresso.org", 
     in publications or presentations arising from this work. More details at
     http://www.quantum-espresso.org/quote

     Serial version
     Waiting for input...
     Reading input from standard input

     Current dimensions of program PWSCF are:
     Max number of different atomic species (ntypx) = 10
     Max number of k-points (npk) =  40000
     Max angular momentum in pseudopotentials (lmaxx) =  3
               file Al.pbe-nl-kjpaw_psl.1.0.0.UPF: wavefunction(s)  3S 3P renormalized

     G-vector sticks info
     --------------------
     sticks:   dense  smooth     PW     G-vecs:    dense   smooth      PW
     Sum        2161    2161    577                75421    75421   10395



     bravais-lattice index     =            0
     lattice parameter (alat)  =      15.2801  a.u.
     unit-cell volume          =    3567.6138 (a.u.)^3
     number of atoms/cell      =           31
     number of atomic types    =            1
     number of electrons       =        93.00
     number of Kohn-Sham states=           56
     kinetic-energy cutoff     =      29.0000  Ry
     charge density cutoff     =     116.0000  Ry
     convergence threshold     =      1.0E-09
     mixing beta               =       0.7000
     number of iterations used =            8  plain     mixing
     Exchange-correlation      = SLA PW PBX PBC ( 1  4  3  4 0 0)

     celldm(1)=  15.280091  celldm(2)=   0.000000  celldm(3)=   0.000000
     celldm(4)=   0.000000  celldm(5)=   0.000000  celldm(6)=   0.000000

     crystal axes: (cart. coord. in units of alat)
               a(1) = (   1.000000   0.000000   0.000000 )  
               a(2) = (   0.000000   1.000000   0.000000 )  
               a(3) = (   0.000000   0.000000   1.000000 )  

     reciprocal axes: (cart. coord. in units 2 pi/alat)
               b(1) = (  1.000000  0.000000  0.000000 )  
               b(2) = (  0.000000  1.000000  0.000000 )  
               b(3) = (  0.000000  0.000000  1.000000 )  


     PseudoPot. # 1 for Al read from file:
     ./Al.pbe-nl-kjpaw_psl.1.0.0.UPF
     MD5 check sum: 8cf6d98cc7ef3f4b729b574060f3a10f
     Pseudo is Projector augmented-wave + core cor, Zval =  3.0
     Generated using "atomic" code by A. Dal Corso v.6.3
     Shape of augmentation charge: PSQ
     Using radial grid of 1135 points,  4 beta functions with: 
                l(1) =   0
                l(2) =   0
                l(3) =   1
                l(4) =   1
     Q(r) pseudized with 0 coefficients 


     atomic species   valence    mass     pseudopotential
        Al             3.00    26.98154     Al( 1.00)

     No symmetry found



   Cartesian axes

     site n.     atom                  positions (alat units)
         1           Al  tau(   1) = (   0.5000000   0.0000000   0.0000000  )
         2           Al  tau(   2) = (   0.0000000   0.5000000   0.0000000  )
         3           Al  tau(   3) = (   0.5000000   0.5000000   0.0000000  )
         4           Al  tau(   4) = (   0.0000000   0.0000000   0.5000000  )
         5           Al  tau(   5) = (   0.5000000   0.0000000   0.5000000  )
         6           Al  tau(   6) = (   0.0000000   0.5000000   0.5000000  )
         7           Al  tau(   7) = (   0.5000000   0.5000000   0.5000000  )
         8           Al  tau(   8) = (   0.2463424   0.2454169   0.0009255  )
         9           Al  tau(   9) = (   0.7545831   0.2454169   0.0000000  )
        10           Al  tau(  10) = (   0.2454169   0.7545831   0.0000000  )
        11           Al  tau(  11) = (   0.7545831   0.7545831   0.0000000  )
        12           Al  tau(  12) = (   0.2506339   0.2506339   0.5000000  )
        13           Al  tau(  13) = (   0.7493661   0.2506339   0.5000000  )
        14           Al  tau(  14) = (   0.2506339   0.7493661   0.5000000  )
        15           Al  tau(  15) = (   0.7493661   0.7493661   0.5000000  )
        16           Al  tau(  16) = (   0.0000000   0.2454169   0.2454169  )
        17           Al  tau(  17) = (   0.5000000   0.2506339   0.2506339  )
        18           Al  tau(  18) = (   0.0000000   0.7545831   0.2454169  )
        19           Al  tau(  19) = (   0.5000000   0.7493661   0.2506339  )
        20           Al  tau(  20) = (   0.0000000   0.2454169   0.7545831  )
        21           Al  tau(  21) = (   0.5000000   0.2506339   0.7493661  )
        22           Al  tau(  22) = (   0.0000000   0.7545831   0.7545831  )
        23           Al  tau(  23) = (   0.5000000   0.7493661   0.7493661  )
        24           Al  tau(  24) = (   0.2454169   0.0000000   0.2454169  )
        25           Al  tau(  25) = (   0.7545831   0.0000000   0.2454169  )
        26           Al  tau(  26) = (   0.2506339   0.5000000   0.2506339  )
        27           Al  tau(  27) = (   0.7493661   0.5000000   0.2506339  )
        28           Al  tau(  28) = (   0.2454169   0.0000000   0.7545831  )
        29           Al  tau(  29) = (   0.7545831   0.0000000   0.7545831  )
        30           Al  tau(  30) = (   0.2506339   0.5000000   0.7493661  )
        31           Al  tau(  31) = (   0.7493661   0.5000000   0.7493661  )

     number of k points=     4  Methfessel-Paxton smearing, width (Ry)=  0.1000
                       cart. coord. in units 2pi/alat
        k(    1) = (   0.2500000   0.2500000   0.2500000), wk =   0.5000000
        k(    2) = (  -0.2500000  -0.2500000   0.2500000), wk =   0.5000000
        k(    3) = (  -0.2500000   0.2500000  -0.2500000), wk =   0.5000000
        k(    4) = (   0.2500000  -0.2500000  -0.2500000), wk =   0.5000000

     Dense  grid:    75421 G-vectors     FFT dimensions: (  54,  54,  54)

     Estimated max dynamical RAM per process >     273.39 MB

     Initial potential from superposition of free atoms

     starting charge   92.92900, renormalised to   93.00000
     Starting wfcs are  124 randomized atomic wfcs

     total cpu time spent up to now is       11.7 secs

     Self-consistent Calculation

     iteration #  1     ecut=    29.00 Ry     beta= 0.70
     Davidson diagonalization with overlap
     ethr =  1.00E-02,  avg # of iterations =  3.0

     Threshold (ethr) on eigenvalues was too large:
     Diagonalizing with lowered threshold

     Davidson diagonalization with overlap
     ethr =  2.17E-04,  avg # of iterations =  5.0

     total cpu time spent up to now is       45.1 secs

     total energy              =   -1224.50406951 Ry
     Harris-Foulkes estimate   =   -1224.57941697 Ry
     estimated scf accuracy    <       0.21059742 Ry

     iteration #  2     ecut=    29.00 Ry     beta= 0.70
     Davidson diagonalization with overlap
     ethr =  2.26E-04,  avg # of iterations =  4.0

     total cpu time spent up to now is       61.1 secs

     total energy              =   -1224.41713070 Ry
     Harris-Foulkes estimate   =   -1224.57932895 Ry
     estimated scf accuracy    <       0.38515355 Ry

     iteration #  3     ecut=    29.00 Ry     beta= 0.70
     Davidson diagonalization with overlap
     ethr =  2.26E-04,  avg # of iterations =  4.0

     total cpu time spent up to now is       77.5 secs

     total energy              =   -1224.48811264 Ry
     Harris-Foulkes estimate   =   -1224.56581544 Ry
     estimated scf accuracy    <       0.30278451 Ry

     iteration #  4     ecut=    29.00 Ry     beta= 0.70
     Davidson diagonalization with overlap
     ethr =  2.26E-04,  avg # of iterations =  3.0

     total cpu time spent up to now is       91.1 secs

     total energy              =   -1224.52309409 Ry
     Harris-Foulkes estimate   =   -1224.52722409 Ry
     estimated scf accuracy    <       0.00853909 Ry

     iteration #  5     ecut=    29.00 Ry     beta= 0.70
     Davidson diagonalization with overlap
     ethr =  9.18E-06,  avg # of iterations =  4.0

     total cpu time spent up to now is      107.5 secs

     total energy              =   -1224.52606416 Ry
     Harris-Foulkes estimate   =   -1224.52638156 Ry
     estimated scf accuracy    <       0.00081381 Ry

     iteration #  6     ecut=    29.00 Ry     beta= 0.70
     Davidson diagonalization with overlap
     ethr =  8.75E-07,  avg # of iterations =  3.2

     total cpu time spent up to now is      122.1 secs

     total energy              =   -1224.52621602 Ry
     Harris-Foulkes estimate   =   -1224.52624846 Ry
     estimated scf accuracy    <       0.00011771 Ry

     iteration #  7     ecut=    29.00 Ry     beta= 0.70
     Davidson diagonalization with overlap
     ethr =  1.27E-07,  avg # of iterations =  4.0

     total cpu time spent up to now is      137.8 secs

     total energy              =   -1224.52622313 Ry
     Harris-Foulkes estimate   =   -1224.52625337 Ry
     estimated scf accuracy    <       0.00010565 Ry

     iteration #  8     ecut=    29.00 Ry     beta= 0.70
     Davidson diagonalization with overlap
     ethr =  1.14E-07,  avg # of iterations =  3.0

     total cpu time spent up to now is      150.6 secs

     total energy              =   -1224.52623862 Ry
     Harris-Foulkes estimate   =   -1224.52623955 Ry
     estimated scf accuracy    <       0.00000348 Ry

     iteration #  9     ecut=    29.00 Ry     beta= 0.70
     Davidson diagonalization with overlap
     ethr =  3.74E-09,  avg # of iterations =  5.0

     total cpu time spent up to now is      167.5 secs

     total energy              =   -1224.52623933 Ry
     Harris-Foulkes estimate   =   -1224.52623961 Ry
     estimated scf accuracy    <       0.00000119 Ry

     iteration # 10     ecut=    29.00 Ry     beta= 0.70
     Davidson diagonalization with overlap
     ethr =  1.27E-09,  avg # of iterations =  2.0

     total cpu time spent up to now is      179.4 secs

     total energy              =   -1224.52623923 Ry
     Harris-Foulkes estimate   =   -1224.52623935 Ry
     estimated scf accuracy    <       0.00000041 Ry

     iteration # 11     ecut=    29.00 Ry     beta= 0.70
     Davidson diagonalization with overlap
     ethr =  4.42E-10,  avg # of iterations =  4.0

     total cpu time spent up to now is      193.2 secs

     total energy              =   -1224.52623917 Ry
     Harris-Foulkes estimate   =   -1224.52623921 Ry
     estimated scf accuracy    <       0.00000013 Ry

     iteration # 12     ecut=    29.00 Ry     beta= 0.70
     Davidson diagonalization with overlap
     ethr =  1.37E-10,  avg # of iterations =  3.0

     total cpu time spent up to now is      206.3 secs

     total energy              =   -1224.52623908 Ry
     Harris-Foulkes estimate   =   -1224.52623909 Ry
     estimated scf accuracy    <          8.8E-09 Ry

     iteration # 13     ecut=    29.00 Ry     beta= 0.70
     Davidson diagonalization with overlap
     ethr =  9.43E-12,  avg # of iterations =  4.2

     total cpu time spent up to now is      222.2 secs

     total energy              =   -1224.52623897 Ry
     Harris-Foulkes estimate   =   -1224.52623897 Ry
     estimated scf accuracy    <          3.1E-09 Ry

     iteration # 14     ecut=    29.00 Ry     beta= 0.70
     Davidson diagonalization with overlap
     ethr =  3.35E-12,  avg # of iterations =  2.5

     total cpu time spent up to now is      234.7 secs

     End of self-consistent calculation

          k = 0.2500 0.2500 0.2500 (  9390 PWs)   bands (ev):

    -3.0276  -1.9484  -1.9469  -1.7894  -0.8330  -0.8313  -0.6034   0.2715
     0.2729   0.3234   0.5050   1.3374   1.3382   1.3822   1.4596   1.4618
     1.8070   2.5384   2.5396   2.6530   3.5046   3.5058   3.6001   3.6094
     3.6099   3.8893   4.5332   4.5337   4.5820   4.6151   4.6173   4.8132
     4.8173   4.8187   5.0774   5.6760   5.6779   6.1132   6.6985   6.7055
     6.7067   6.8774   6.9152   6.9392   6.9399   7.7549   7.7906   7.7917
     8.0025   8.0032   8.0431   8.1096   8.1106   8.2295   9.0582   9.0593

          k =-0.2500-0.2500 0.2500 (  9390 PWs)   bands (ev):

    -3.0275  -1.9500  -1.9477  -1.7867  -0.8345  -0.8321  -0.6004   0.2701
     0.2722   0.3232   0.5065   1.3349   1.3374   1.3807   1.4601   1.4627
     1.8100   2.5385   2.5398   2.6554   3.5029   3.5047   3.6009   3.6094
     3.6102   3.8887   4.5304   4.5326   4.5804   4.6153   4.6171   4.8159
     4.8183   4.8198   5.0787   5.6746   5.6771   6.1157   6.6965   6.7048
     6.7063   6.8770   6.9161   6.9382   6.9406   7.7528   7.7901   7.7914
     8.0017   8.0035   8.0470   8.1107   8.1123   8.2307   9.0574   9.0584

          k =-0.2500 0.2500-0.2500 (  9390 PWs)   bands (ev):

    -3.0276  -1.9491  -1.9475  -1.7879  -0.8335  -0.8321  -0.6017   0.2707
     0.2723   0.3228   0.5064   1.3367   1.3381   1.3804   1.4610   1.4622
     1.8081   2.5386   2.5396   2.6536   3.5036   3.5044   3.6003   3.6094
     3.6109   3.8900   4.5322   4.5331   4.5801   4.6155   4.6173   4.8132
     4.8189   4.8195   5.0782   5.6755   5.6774   6.1144   6.6972   6.7053
     6.7064   6.8774   6.9160   6.9393   6.9403   7.7536   7.7901   7.7920
     8.0014   8.0027   8.0434   8.1111   8.1120   8.2305   9.0578   9.0590

          k = 0.2500-0.2500-0.2500 (  9390 PWs)   bands (ev):

    -3.0276  -1.9499  -1.9467  -1.7879  -0.8344  -0.8312  -0.6018   0.2698
     0.2733   0.3227   0.5064   1.3352   1.3395   1.3805   1.4607   1.4625
     1.8081   2.5386   2.5395   2.6536   3.5030   3.5050   3.6003   3.6095
     3.6108   3.8900   4.5305   4.5348   4.5802   4.6156   4.6171   4.8132
     4.8182   4.8201   5.0782   5.6745   5.6784   6.1144   6.6971   6.7046
     6.7072   6.8773   6.9160   6.9390   6.9405   7.7536   7.7894   7.7927
     8.0013   8.0028   8.0434   8.1105   8.1126   8.2305   9.0567   9.0600

     the Fermi energy is     7.5452 ev

!    total energy              =   -1224.52623892 Ry
     Harris-Foulkes estimate   =   -1224.52623892 Ry
     estimated scf accuracy    <          8.8E-10 Ry

     total all-electron energy =    -15054.952435 Ry

     The total energy is the sum of the following terms:

     one-electron contribution =      93.59206550 Ry
     hartree contribution      =       1.23019372 Ry
     xc contribution           =     -79.98514308 Ry
     ewald contribution        =    -164.20899207 Ry
     one-center paw contrib.   =   -1074.99902326 Ry
     smearing contrib. (-TS)   =      -0.15533974 Ry

     convergence has been achieved in  14 iterations

     Forces acting on atoms (cartesian axes, Ry/au):

     atom    1 type  1   force =     0.00018523   -0.00019084   -0.00004931
     atom    2 type  1   force =     0.00016690   -0.00019282   -0.00004776
     atom    3 type  1   force =     0.00015304    0.00014028   -0.00006367
     atom    4 type  1   force =     0.00001334   -0.00000247   -0.00000324
     atom    5 type  1   force =     0.00000831   -0.00000724   -0.00001091
     atom    6 type  1   force =     0.00002193   -0.00001622   -0.00001218
     atom    7 type  1   force =     0.00001153    0.00001085   -0.00001029
     atom    8 type  1   force =    -0.00111869    0.00026370   -0.00142527
     atom    9 type  1   force =     0.00002976    0.00004697   -0.00003823
     atom   10 type  1   force =     0.00002571   -0.00004602   -0.00003207
     atom   11 type  1   force =    -0.00003607   -0.00004276   -0.00000861
     atom   12 type  1   force =    -0.00126311   -0.00122757    0.00009612
     atom   13 type  1   force =     0.00124409   -0.00123276    0.00001072
     atom   14 type  1   force =    -0.00123826    0.00124076    0.00000203
     atom   15 type  1   force =     0.00119543    0.00124274   -0.00004468
     atom   16 type  1   force =    -0.00000282    0.00004713    0.00002231
     atom   17 type  1   force =     0.00034009   -0.00122957   -0.00090847
     atom   18 type  1   force =     0.00001593   -0.00004296    0.00005668
     atom   19 type  1   force =     0.00000962    0.00123154   -0.00120885
     atom   20 type  1   force =     0.00043389    0.00007155    0.00041007
     atom   21 type  1   force =     0.00000303   -0.00123144    0.00123292
     atom   22 type  1   force =     0.00001511   -0.00001672   -0.00002854
     atom   23 type  1   force =     0.00000948    0.00124758    0.00124186
     atom   24 type  1   force =    -0.00000757   -0.00025687    0.00028208
     atom   25 type  1   force =    -0.00005830    0.00000338    0.00004528
     atom   26 type  1   force =    -0.00128835    0.00016709   -0.00106666
     atom   27 type  1   force =     0.00121233   -0.00000390   -0.00121713
     atom   28 type  1   force =     0.00001944    0.00020320    0.00016463
     atom   29 type  1   force =    -0.00003501    0.00001430   -0.00002002
     atom   30 type  1   force =    -0.00128916   -0.00017445    0.00138279
     atom   31 type  1   force =     0.00122316   -0.00001646    0.00124839

     Total force =     0.006354     Total SCF correction =     0.000041


     Computing stress (Cartesian axis) and pressure

          total   stress  (Ry/bohr**3)                   (kbar)     P=   -4.59
  -0.00003110   0.00000010  -0.00000018         -4.57      0.02     -0.03
   0.00000010  -0.00003134  -0.00000024          0.02     -4.61     -0.04
  -0.00000018  -0.00000024  -0.00003123         -0.03     -0.04     -4.59


     Writing output data file pwscf.save/

     init_run     :     11.42s CPU     11.50s WALL (       1 calls)
     electrons    :    220.83s CPU    222.96s WALL (       1 calls)
     forces       :      4.18s CPU      4.25s WALL (       1 calls)
     stress       :      4.99s CPU      5.05s WALL (       1 calls)

     Called by init_run:
     wfcinit      :     10.13s CPU     10.19s WALL (       1 calls)
     potinit      :      0.81s CPU      0.81s WALL (       1 calls)
     hinit0       :      0.23s CPU      0.23s WALL (       1 calls)

     Called by electrons:
     c_bands      :    185.82s CPU    187.25s WALL (      15 calls)
     sum_band     :     20.66s CPU     21.02s WALL (      15 calls)
     v_of_rho     :      0.85s CPU      0.85s WALL (      15 calls)
     newd         :      3.35s CPU      3.70s WALL (      15 calls)
     PAW_pot      :     10.98s CPU     10.98s WALL (      15 calls)
     mix_rho      :      0.16s CPU      0.18s WALL (      15 calls)

     Called by c_bands:
     init_us_2    :      0.75s CPU      0.76s WALL (     132 calls)
     cegterg      :    183.89s CPU    185.27s WALL (      60 calls)

     Called by sum_band:
     sum_band:bec :      0.01s CPU      0.01s WALL (      60 calls)
     addusdens    :      2.30s CPU      2.65s WALL (      15 calls)

     Called by *egterg:
     h_psi        :    106.18s CPU    106.63s WALL (     280 calls)
     s_psi        :     37.05s CPU     37.17s WALL (     280 calls)
     g_psi        :      0.18s CPU      0.18s WALL (     216 calls)
     cdiaghg      :      2.55s CPU      2.55s WALL (     272 calls)

     Called by h_psi:
     h_psi:pot    :    105.89s CPU    106.05s WALL (     280 calls)
     h_psi:calbec :     36.85s CPU     36.86s WALL (     280 calls)
     vloc_psi     :     31.78s CPU     31.94s WALL (     280 calls)
     add_vuspsi   :     37.25s CPU     37.25s WALL (     280 calls)

     General routines
     calbec       :     53.05s CPU     53.06s WALL (     360 calls)
     fft          :      0.46s CPU      0.46s WALL (     191 calls)
     ffts         :      0.04s CPU      0.04s WALL (      15 calls)
     fftw         :     33.20s CPU     33.33s WALL (   23412 calls)


     PWSCF        :   4m 1.67s CPU   4m 4.04s WALL


   This run was terminated on:  19: 0: 7  14Nov2019            

=------------------------------------------------------------------------------=
   JOB DONE.
=------------------------------------------------------------------------------=
