
     Program PWSCF v.6.4.1 starts on 14Nov2019 at  1:18:56 

     This program is part of the open-source Quantum ESPRESSO suite
     for quantum simulation of materials; please cite
         "P. Giannozzi et al., J. Phys.:Condens. Matter 21 395502 (2009);
         "P. Giannozzi et al., J. Phys.:Condens. Matter 29 465901 (2017);
          URL http://www.quantum-espresso.org", 
     in publications or presentations arising from this work. More details at
     http://www.quantum-espresso.org/quote

     Serial version
     Waiting for input...
     Reading input from standard input

     Current dimensions of program PWSCF are:
     Max number of different atomic species (ntypx) = 10
     Max number of k-points (npk) =  40000
     Max angular momentum in pseudopotentials (lmaxx) =  3
               file O.pbe-n-kjpaw_psl.1.0.0.UPF: wavefunction(s)  2S 2P renormalized

     gamma-point specific algorithms are used
     Message from routine setup:
     DEPRECATED: symmetry with ibrav=0, use correct ibrav instead

     G-vector sticks info
     --------------------
     sticks:   dense  smooth     PW     G-vecs:    dense   smooth      PW
     Sum       12033   12033   2997               991787   991787  123905



     bravais-lattice index     =            0
     lattice parameter (alat)  =      28.3459  a.u.
     unit-cell volume          =   22775.6292 (a.u.)^3
     number of atoms/cell      =            2
     number of atomic types    =            1
     number of electrons       =        12.00
     number of Kohn-Sham states=            6
     kinetic-energy cutoff     =      47.0000  Ry
     charge density cutoff     =     188.0000  Ry
     convergence threshold     =      1.0E-05
     mixing beta               =       0.7000
     number of iterations used =            8  plain     mixing
     Exchange-correlation      = SLA PW PBX PBC ( 1  4  3  4 0 0)
     nstep                     =           50


     celldm(1)=  28.345892  celldm(2)=   0.000000  celldm(3)=   0.000000
     celldm(4)=   0.000000  celldm(5)=   0.000000  celldm(6)=   0.000000

     crystal axes: (cart. coord. in units of alat)
               a(1) = (   1.000000   0.000000   0.000000 )  
               a(2) = (   0.000000   1.000000   0.000000 )  
               a(3) = (   0.000000   0.000000   1.000000 )  

     reciprocal axes: (cart. coord. in units 2 pi/alat)
               b(1) = (  1.000000  0.000000  0.000000 )  
               b(2) = (  0.000000  1.000000  0.000000 )  
               b(3) = (  0.000000  0.000000  1.000000 )  


     PseudoPot. # 1 for O  read from file:
     ./O.pbe-n-kjpaw_psl.1.0.0.UPF
     MD5 check sum: e99d9cef9b487d1ca56f5b95ecd0fd7a
     Pseudo is Projector augmented-wave + core cor, Zval =  6.0
     Generated using "atomic" code by A. Dal Corso v.6.3
     Shape of augmentation charge: PSQ
     Using radial grid of 1095 points,  4 beta functions with: 
                l(1) =   0
                l(2) =   0
                l(3) =   1
                l(4) =   1
     Q(r) pseudized with 0 coefficients 


     atomic species   valence    mass     pseudopotential
        O              6.00    15.99900     O ( 1.00)

      8 Sym. Ops. (no inversion) found



   Cartesian axes

     site n.     atom                  positions (alat units)
         1           O   tau(   1) = (   0.0000000   0.0000000   0.0000000  )
         2           O   tau(   2) = (   0.0000000   0.0000000   0.0820000  )

     number of k points=     1
                       cart. coord. in units 2pi/alat
        k(    1) = (   0.0000000   0.0000000   0.0000000), wk =   2.0000000

     Dense  grid:   495894 G-vectors     FFT dimensions: ( 125, 125, 125)

     Estimated max dynamical RAM per process >     721.94 MB

     Check: negative core charge=   -0.000001

     Initial potential from superposition of free atoms

     starting charge   12.00000, renormalised to   12.00000

     negative rho (up, down):  1.478E-02 0.000E+00
     Starting wfcs are    8 randomized atomic wfcs

     total cpu time spent up to now is        2.8 secs

     Self-consistent Calculation

     iteration #  1     ecut=    47.00 Ry     beta= 0.70
     Davidson diagonalization with overlap
     ethr =  1.00E-02,  avg # of iterations =  2.0

     negative rho (up, down):  1.906E-02 0.000E+00

     total cpu time spent up to now is        5.7 secs

     total energy              =     -82.83481945 Ry
     Harris-Foulkes estimate   =     -82.90878251 Ry
     estimated scf accuracy    <       0.15325425 Ry

     iteration #  2     ecut=    47.00 Ry     beta= 0.70
     Davidson diagonalization with overlap
     ethr =  1.28E-03,  avg # of iterations =  4.0

     negative rho (up, down):  2.384E-02 0.000E+00

     total cpu time spent up to now is        9.0 secs

     total energy              =     -82.91146656 Ry
     Harris-Foulkes estimate   =     -82.92378583 Ry
     estimated scf accuracy    <       0.02054687 Ry

     iteration #  3     ecut=    47.00 Ry     beta= 0.70
     Davidson diagonalization with overlap
     ethr =  1.71E-04,  avg # of iterations =  4.0

     negative rho (up, down):  2.490E-02 0.000E+00

     total cpu time spent up to now is       12.2 secs

     total energy              =     -82.91671245 Ry
     Harris-Foulkes estimate   =     -82.91710265 Ry
     estimated scf accuracy    <       0.00104154 Ry

     iteration #  4     ecut=    47.00 Ry     beta= 0.70
     Davidson diagonalization with overlap
     ethr =  8.68E-06,  avg # of iterations =  3.0

     negative rho (up, down):  2.549E-02 0.000E+00

     total cpu time spent up to now is       15.3 secs

     total energy              =     -82.91768524 Ry
     Harris-Foulkes estimate   =     -82.91800063 Ry
     estimated scf accuracy    <       0.00053088 Ry

     iteration #  5     ecut=    47.00 Ry     beta= 0.70
     Davidson diagonalization with overlap
     ethr =  4.42E-06,  avg # of iterations =  3.0

     negative rho (up, down):  2.575E-02 0.000E+00

     total cpu time spent up to now is       18.2 secs

     End of self-consistent calculation

          k = 0.0000 0.0000 0.0000 ( 61953 PWs)   bands (ev):

   -32.1605 -19.9641 -13.1575 -13.1029 -12.0926  -5.5521

     highest occupied level (ev):    -5.5521

!    total energy              =     -82.91782263 Ry
     Harris-Foulkes estimate   =     -82.91782505 Ry
     estimated scf accuracy    <       0.00000748 Ry

     total all-electron energy =      -300.611603 Ry

     The total energy is the sum of the following terms:

     one-electron contribution =    -136.19022267 Ry
     hartree contribution      =      70.29521047 Ry
     xc contribution           =     -14.42059303 Ry
     ewald contribution        =      16.59859667 Ry
     one-center paw contrib.   =     -19.20081407 Ry

     convergence has been achieved in   5 iterations

     negative rho (up, down):  2.575E-02 0.000E+00

     Forces acting on atoms (cartesian axes, Ry/au):

     atom    1 type  1   force =     0.00000000    0.00000000   -0.01410448
     atom    2 type  1   force =     0.00000000    0.00000000    0.01410448

     Total force =     0.014104     Total SCF correction =     0.005096
     SCF correction compared to forces is large: reduce conv_thr to get better values

     BFGS Geometry Optimization

     number of scf cycles    =   1
     number of bfgs steps    =   0

     energy   new            =     -82.9178226329 Ry

     new trust radius        =       0.0141044820 bohr
     new conv_thr            =       0.0000100000 Ry


ATOMIC_POSITIONS (angstrom)
O        0.000000000   0.000000000   0.000000000    0   0   0
O        0.000000000   0.000000000   1.237463770    0   0   1



     Writing output data file pwscf.save/
     Message from routine punch:
     wavefunctions written to file
     NEW-OLD atomic charge density approx. for the potential

     Check: negative core charge=   -0.000001

     negative rho (up, down):  2.564E-02 0.000E+00

     total cpu time spent up to now is       21.9 secs

     Self-consistent Calculation

     iteration #  1     ecut=    47.00 Ry     beta= 0.70
     Davidson diagonalization with overlap
     ethr =  1.00E-06,  avg # of iterations =  5.0

     negative rho (up, down):  2.575E-02 0.000E+00

     total cpu time spent up to now is       25.9 secs

     total energy              =     -82.91768514 Ry
     Harris-Foulkes estimate   =     -82.91720979 Ry
     estimated scf accuracy    <       0.00012744 Ry

     iteration #  2     ecut=    47.00 Ry     beta= 0.70
     Davidson diagonalization with overlap
     ethr =  1.06E-06,  avg # of iterations =  7.0

     negative rho (up, down):  2.574E-02 0.000E+00

     total cpu time spent up to now is       29.6 secs

     total energy              =     -83.05779837 Ry
     Harris-Foulkes estimate   =     -83.05790655 Ry
     estimated scf accuracy    <       0.35936207 Ry

     iteration #  3     ecut=    47.00 Ry     beta= 0.70
     Davidson diagonalization with overlap
     ethr =  1.06E-06,  avg # of iterations =  1.0

     negative rho (up, down):  2.602E-02 0.000E+00

     total cpu time spent up to now is       32.4 secs

     total energy              =     -83.05974075 Ry
     Harris-Foulkes estimate   =     -83.05780012 Ry
     estimated scf accuracy    <       0.35907923 Ry

     iteration #  4     ecut=    47.00 Ry     beta= 0.70
     Davidson diagonalization with overlap
     ethr =  1.06E-06,  avg # of iterations =  3.0

     negative rho (up, down):  2.463E-02 0.000E+00

     total cpu time spent up to now is       35.3 secs

     total energy              =     -83.04781432 Ry
     Harris-Foulkes estimate   =     -83.05975626 Ry
     estimated scf accuracy    <       0.36425806 Ry

     iteration #  5     ecut=    47.00 Ry     beta= 0.70
     Davidson diagonalization with overlap
     ethr =  1.06E-06,  avg # of iterations =  4.0

     negative rho (up, down):  2.466E-02 0.000E+00

     total cpu time spent up to now is       38.8 secs

     total energy              =     -83.04811412 Ry
     Harris-Foulkes estimate   =     -83.04799775 Ry
     estimated scf accuracy    <       0.33408157 Ry

     iteration #  6     ecut=    47.00 Ry     beta= 0.70
     Davidson diagonalization with overlap
     ethr =  1.06E-06,  avg # of iterations =  1.0

     negative rho (up, down):  2.369E-02 0.000E+00

     total cpu time spent up to now is       41.6 secs

     total energy              =     -83.03765660 Ry
     Harris-Foulkes estimate   =     -83.04811636 Ry
     estimated scf accuracy    <       0.33453462 Ry

     iteration #  7     ecut=    47.00 Ry     beta= 0.70
     Davidson diagonalization with overlap
     ethr =  1.06E-06,  avg # of iterations =  4.0

     negative rho (up, down):  2.130E-02 0.000E+00

     total cpu time spent up to now is       45.1 secs

     total energy              =     -82.99991176 Ry
     Harris-Foulkes estimate   =     -83.03865410 Ry
     estimated scf accuracy    <       0.30872232 Ry

     iteration #  8     ecut=    47.00 Ry     beta= 0.70
     Davidson diagonalization with overlap
     ethr =  1.06E-06,  avg # of iterations =  5.0

     negative rho (up, down):  2.129E-02 0.000E+00

     total cpu time spent up to now is       48.9 secs

     total energy              =     -82.96786755 Ry
     Harris-Foulkes estimate   =     -83.00059774 Ry
     estimated scf accuracy    <       0.21047717 Ry

     iteration #  9     ecut=    47.00 Ry     beta= 0.70
     Davidson diagonalization with overlap
     ethr =  1.06E-06,  avg # of iterations =  4.0

     negative rho (up, down):  2.214E-02 0.000E+00

     total cpu time spent up to now is       52.5 secs

     total energy              =     -82.94389407 Ry
     Harris-Foulkes estimate   =     -82.96834942 Ry
     estimated scf accuracy    <       0.12979533 Ry

     iteration # 10     ecut=    47.00 Ry     beta= 0.70
     Davidson diagonalization with overlap
     ethr =  1.06E-06,  avg # of iterations =  5.0

     negative rho (up, down):  3.340E-02 0.000E+00

     total cpu time spent up to now is       56.3 secs

     total energy              =     -82.91860651 Ry
     Harris-Foulkes estimate   =     -82.94450838 Ry
     estimated scf accuracy    <       0.07136041 Ry

     iteration # 11     ecut=    47.00 Ry     beta= 0.70
     Davidson diagonalization with overlap
     ethr =  1.06E-06,  avg # of iterations = 16.0

     negative rho (up, down):  2.121E-02 0.000E+00

     total cpu time spent up to now is       61.3 secs

     total energy              =     -83.01170382 Ry
     Harris-Foulkes estimate   =     -83.06502861 Ry
     estimated scf accuracy    <       0.38599642 Ry

     iteration # 12     ecut=    47.00 Ry     beta= 0.70
     Davidson diagonalization with overlap
     ethr =  1.06E-06,  avg # of iterations =  4.0

     negative rho (up, down):  2.212E-02 0.000E+00

     total cpu time spent up to now is       65.1 secs

     total energy              =     -83.02715840 Ry
     Harris-Foulkes estimate   =     -83.01297707 Ry
     estimated scf accuracy    <       0.24748278 Ry

     iteration # 13     ecut=    47.00 Ry     beta= 0.70
     Davidson diagonalization with overlap
     ethr =  1.06E-06,  avg # of iterations =  5.0

     negative rho (up, down):  1.771E-02 0.000E+00

     total cpu time spent up to now is       68.9 secs

     total energy              =     -82.95963191 Ry
     Harris-Foulkes estimate   =     -83.02904485 Ry
     estimated scf accuracy    <       0.31174818 Ry

     iteration # 14     ecut=    47.00 Ry     beta= 0.70
     Davidson diagonalization with overlap
     ethr =  1.06E-06,  avg # of iterations =  5.0

     negative rho (up, down):  2.164E-02 0.000E+00

     total cpu time spent up to now is       72.7 secs

     total energy              =     -82.91774798 Ry
     Harris-Foulkes estimate   =     -82.96291398 Ry
     estimated scf accuracy    <       0.12081873 Ry

     iteration # 15     ecut=    47.00 Ry     beta= 0.70
     Davidson diagonalization with overlap
     ethr =  1.06E-06,  avg # of iterations = 12.0

     negative rho (up, down):  2.162E-02 0.000E+00

     total cpu time spent up to now is       77.2 secs

     total energy              =     -83.01492021 Ry
     Harris-Foulkes estimate   =     -83.01501880 Ry
     estimated scf accuracy    <       0.24581747 Ry

     iteration # 16     ecut=    47.00 Ry     beta= 0.70
     Davidson diagonalization with overlap
     ethr =  1.06E-06,  avg # of iterations =  1.0

     negative rho (up, down):  1.886E-02 0.000E+00

     total cpu time spent up to now is       80.0 secs

     total energy              =     -82.98233993 Ry
     Harris-Foulkes estimate   =     -83.01492210 Ry
     estimated scf accuracy    <       0.24574573 Ry

     iteration # 17     ecut=    47.00 Ry     beta= 0.70
     Davidson diagonalization with overlap
     ethr =  1.06E-06,  avg # of iterations =  5.0

     negative rho (up, down):  1.821E-02 0.000E+00

     total cpu time spent up to now is       83.6 secs

     total energy              =     -82.97227444 Ry
     Harris-Foulkes estimate   =     -82.98276569 Ry
     estimated scf accuracy    <       0.16365976 Ry

     iteration # 18     ecut=    47.00 Ry     beta= 0.70
     Davidson diagonalization with overlap
     ethr =  1.06E-06,  avg # of iterations =  3.0

     negative rho (up, down):  1.771E-02 0.000E+00

     total cpu time spent up to now is       86.8 secs

     total energy              =     -82.96024026 Ry
     Harris-Foulkes estimate   =     -82.97232364 Ry
     estimated scf accuracy    <       0.13754252 Ry

     iteration # 19     ecut=    47.00 Ry     beta= 0.70
     Davidson diagonalization with overlap
     ethr =  1.06E-06,  avg # of iterations =  3.0

     negative rho (up, down):  1.763E-02 0.000E+00

     total cpu time spent up to now is       90.1 secs

     total energy              =     -82.95664641 Ry
     Harris-Foulkes estimate   =     -82.96033179 Ry
     estimated scf accuracy    <       0.10739711 Ry

     iteration # 20     ecut=    47.00 Ry     beta= 0.70
     Davidson diagonalization with overlap
     ethr =  1.06E-06,  avg # of iterations =  2.0

     negative rho (up, down):  1.762E-02 0.000E+00

     total cpu time spent up to now is       93.0 secs

     total energy              =     -82.95092193 Ry
     Harris-Foulkes estimate   =     -82.95665368 Ry
     estimated scf accuracy    <       0.09843345 Ry

     iteration # 21     ecut=    47.00 Ry     beta= 0.70
     Davidson diagonalization with overlap
     ethr =  1.06E-06,  avg # of iterations =  3.0

     negative rho (up, down):  1.761E-02 0.000E+00

     total cpu time spent up to now is       96.1 secs

     total energy              =     -82.95111757 Ry
     Harris-Foulkes estimate   =     -82.95095523 Ry
     estimated scf accuracy    <       0.08406985 Ry

     iteration # 22     ecut=    47.00 Ry     beta= 0.70
     Davidson diagonalization with overlap
     ethr =  1.06E-06,  avg # of iterations =  1.0

     negative rho (up, down):  2.518E-02 0.000E+00

     total cpu time spent up to now is       99.0 secs

     total energy              =     -82.91471758 Ry
     Harris-Foulkes estimate   =     -82.95111899 Ry
     estimated scf accuracy    <       0.08447976 Ry

     iteration # 23     ecut=    47.00 Ry     beta= 0.70
     Davidson diagonalization with overlap
     ethr =  1.06E-06,  avg # of iterations =  7.0

     negative rho (up, down):  2.588E-02 0.000E+00

     total cpu time spent up to now is      103.1 secs

     total energy              =     -82.91781065 Ry
     Harris-Foulkes estimate   =     -82.91791350 Ry
     estimated scf accuracy    <       0.00076692 Ry

     iteration # 24     ecut=    47.00 Ry     beta= 0.70
     Davidson diagonalization with overlap
     ethr =  1.06E-06,  avg # of iterations =  2.0

     negative rho (up, down):  2.588E-02 0.000E+00

     total cpu time spent up to now is      106.0 secs

     total energy              =     -82.91784911 Ry
     Harris-Foulkes estimate   =     -82.91781832 Ry
     estimated scf accuracy    <       0.00050878 Ry

     iteration # 25     ecut=    47.00 Ry     beta= 0.70
     Davidson diagonalization with overlap
     ethr =  1.06E-06,  avg # of iterations =  1.0

     negative rho (up, down):  2.598E-02 0.000E+00

     total cpu time spent up to now is      108.8 secs

     total energy              =     -82.91774528 Ry
     Harris-Foulkes estimate   =     -82.91785072 Ry
     estimated scf accuracy    <       0.00056644 Ry

     iteration # 26     ecut=    47.00 Ry     beta= 0.70
     Davidson diagonalization with overlap
     ethr =  1.06E-06,  avg # of iterations =  1.0

     negative rho (up, down):  2.614E-02 0.000E+00

     total cpu time spent up to now is      111.6 secs

     total energy              =     -82.91749350 Ry
     Harris-Foulkes estimate   =     -82.91774882 Ry
     estimated scf accuracy    <       0.00039997 Ry

     iteration # 27     ecut=    47.00 Ry     beta= 0.70
     Davidson diagonalization with overlap
     ethr =  1.06E-06,  avg # of iterations =  9.0

     negative rho (up, down):  2.300E-02 0.000E+00

     total cpu time spent up to now is      115.8 secs

     total energy              =     -83.02841394 Ry
     Harris-Foulkes estimate   =     -83.05890617 Ry
     estimated scf accuracy    <       0.36235781 Ry

     iteration # 28     ecut=    47.00 Ry     beta= 0.70
     Davidson diagonalization with overlap
     ethr =  1.06E-06,  avg # of iterations =  4.0

     negative rho (up, down):  1.765E-02 0.000E+00

     total cpu time spent up to now is      119.3 secs

     total energy              =     -82.95393916 Ry
     Harris-Foulkes estimate   =     -83.02865418 Ry
     estimated scf accuracy    <       0.28129797 Ry

     iteration # 29     ecut=    47.00 Ry     beta= 0.70
     Davidson diagonalization with overlap
     ethr =  1.06E-06,  avg # of iterations =  5.0

     negative rho (up, down):  1.781E-02 0.000E+00

     total cpu time spent up to now is      123.0 secs

     total energy              =     -82.94468808 Ry
     Harris-Foulkes estimate   =     -82.95605196 Ry
     estimated scf accuracy    <       0.09663143 Ry

     iteration # 30     ecut=    47.00 Ry     beta= 0.70
     Davidson diagonalization with overlap
     ethr =  1.06E-06,  avg # of iterations =  3.0

     negative rho (up, down):  1.776E-02 0.000E+00

     total cpu time spent up to now is      126.3 secs

     total energy              =     -82.94503316 Ry
     Harris-Foulkes estimate   =     -82.94479154 Ry
     estimated scf accuracy    <       0.06862095 Ry

     iteration # 31     ecut=    47.00 Ry     beta= 0.70
     Davidson diagonalization with overlap
     ethr =  1.06E-06,  avg # of iterations =  1.0

     negative rho (up, down):  1.927E-02 0.000E+00

     total cpu time spent up to now is      129.1 secs

     total energy              =     -82.98607685 Ry
     Harris-Foulkes estimate   =     -82.94503533 Ry
     estimated scf accuracy    <       0.06920303 Ry

     iteration # 32     ecut=    47.00 Ry     beta= 0.70
     Davidson diagonalization with overlap
     ethr =  1.06E-06,  avg # of iterations =  5.0

     negative rho (up, down):  1.758E-02 0.000E+00

     total cpu time spent up to now is      132.8 secs

     total energy              =     -82.94963833 Ry
     Harris-Foulkes estimate   =     -82.98742558 Ry
     estimated scf accuracy    <       0.17652720 Ry

     iteration # 33     ecut=    47.00 Ry     beta= 0.70
     Davidson diagonalization with overlap
     ethr =  1.06E-06,  avg # of iterations =  4.0

     negative rho (up, down):  2.039E-02 0.000E+00

     total cpu time spent up to now is      136.4 secs

     total energy              =     -82.92388907 Ry
     Harris-Foulkes estimate   =     -82.95037149 Ry
     estimated scf accuracy    <       0.08338649 Ry

     iteration # 34     ecut=    47.00 Ry     beta= 0.70
     Davidson diagonalization with overlap
     ethr =  1.06E-06,  avg # of iterations =  5.0

     negative rho (up, down):  2.240E-02 0.000E+00

     total cpu time spent up to now is      140.1 secs

     total energy              =     -82.92014844 Ry
     Harris-Foulkes estimate   =     -82.92505613 Ry
     estimated scf accuracy    <       0.01904436 Ry

     iteration # 35     ecut=    47.00 Ry     beta= 0.70
     Davidson diagonalization with overlap
     ethr =  1.06E-06,  avg # of iterations =  3.0

     negative rho (up, down):  2.590E-02 0.000E+00

     total cpu time spent up to now is      143.5 secs

     total energy              =     -82.91749519 Ry
     Harris-Foulkes estimate   =     -82.92028632 Ry
     estimated scf accuracy    <       0.00677288 Ry

     iteration # 36     ecut=    47.00 Ry     beta= 0.70
     Davidson diagonalization with overlap
     ethr =  1.06E-06,  avg # of iterations =  3.0

     negative rho (up, down):  2.587E-02 0.000E+00

     total cpu time spent up to now is      146.9 secs

     total energy              =     -82.91775960 Ry
     Harris-Foulkes estimate   =     -82.91777770 Ry
     estimated scf accuracy    <       0.00017093 Ry

     iteration # 37     ecut=    47.00 Ry     beta= 0.70
     Davidson diagonalization with overlap
     ethr =  1.06E-06,  avg # of iterations =  1.0

     negative rho (up, down):  2.584E-02 0.000E+00

     total cpu time spent up to now is      149.7 secs

     total energy              =     -82.91774289 Ry
     Harris-Foulkes estimate   =     -82.91776025 Ry
     estimated scf accuracy    <       0.00014132 Ry

     iteration # 38     ecut=    47.00 Ry     beta= 0.70
     Davidson diagonalization with overlap
     ethr =  1.06E-06,  avg # of iterations =  1.0

     negative rho (up, down):  2.586E-02 0.000E+00

     total cpu time spent up to now is      152.5 secs

     total energy              =     -82.91773524 Ry
     Harris-Foulkes estimate   =     -82.91774596 Ry
     estimated scf accuracy    <       0.00010858 Ry

     iteration # 39     ecut=    47.00 Ry     beta= 0.70
     Davidson diagonalization with overlap
     ethr =  9.05E-07,  avg # of iterations =  1.0

     negative rho (up, down):  2.585E-02 0.000E+00

     total cpu time spent up to now is      155.3 secs

     total energy              =     -82.91771981 Ry
     Harris-Foulkes estimate   =     -82.91773693 Ry
     estimated scf accuracy    <       0.00009456 Ry

     iteration # 40     ecut=    47.00 Ry     beta= 0.70
     Davidson diagonalization with overlap
     ethr =  7.88E-07,  avg # of iterations =  1.0

     negative rho (up, down):  2.584E-02 0.000E+00

     total cpu time spent up to now is      158.1 secs

     total energy              =     -82.91771163 Ry
     Harris-Foulkes estimate   =     -82.91772236 Ry
     estimated scf accuracy    <       0.00005806 Ry

     iteration # 41     ecut=    47.00 Ry     beta= 0.70
     Davidson diagonalization with overlap
     ethr =  4.84E-07,  avg # of iterations =  9.0

     negative rho (up, down):  2.577E-02 0.000E+00

     total cpu time spent up to now is      161.7 secs

     total energy              =     -83.05707627 Ry
     Harris-Foulkes estimate   =     -83.05782575 Ry
     estimated scf accuracy    <       0.35882512 Ry

     iteration # 42     ecut=    47.00 Ry     beta= 0.70
     Davidson diagonalization with overlap
     ethr =  4.84E-07,  avg # of iterations =  1.0

     negative rho (up, down):  2.600E-02 0.000E+00

     total cpu time spent up to now is      164.5 secs

     total energy              =     -83.06000568 Ry
     Harris-Foulkes estimate   =     -83.05707658 Ry
     estimated scf accuracy    <       0.35695024 Ry

     iteration # 43     ecut=    47.00 Ry     beta= 0.70
     Davidson diagonalization with overlap
     ethr =  4.84E-07,  avg # of iterations =  5.0

     negative rho (up, down):  2.745E-02 0.000E+00

     total cpu time spent up to now is      167.8 secs

     total energy              =     -83.07415551 Ry
     Harris-Foulkes estimate   =     -83.06003635 Ry
     estimated scf accuracy    <       0.36489673 Ry

     iteration # 44     ecut=    47.00 Ry     beta= 0.70
     Davidson diagonalization with overlap
     ethr =  4.84E-07,  avg # of iterations =  3.0

     negative rho (up, down):  2.646E-02 0.000E+00

     total cpu time spent up to now is      171.2 secs

     total energy              =     -83.06458745 Ry
     Harris-Foulkes estimate   =     -83.07419467 Ry
     estimated scf accuracy    <       0.40374098 Ry

     iteration # 45     ecut=    47.00 Ry     beta= 0.70
     Davidson diagonalization with overlap
     ethr =  4.84E-07,  avg # of iterations =  2.0

     negative rho (up, down):  2.649E-02 0.000E+00

     total cpu time spent up to now is      174.1 secs

     total energy              =     -83.06463505 Ry
     Harris-Foulkes estimate   =     -83.06459959 Ry
     estimated scf accuracy    <       0.37804736 Ry

     iteration # 46     ecut=    47.00 Ry     beta= 0.70
     Davidson diagonalization with overlap
     ethr =  4.84E-07,  avg # of iterations =  1.0

     negative rho (up, down):  2.703E-02 0.000E+00

     total cpu time spent up to now is      176.9 secs

     total energy              =     -83.06900875 Ry
     Harris-Foulkes estimate   =     -83.06463842 Ry
     estimated scf accuracy    <       0.37830031 Ry

     iteration # 47     ecut=    47.00 Ry     beta= 0.70
     Davidson diagonalization with overlap
     ethr =  4.84E-07,  avg # of iterations =  4.0

     negative rho (up, down):  2.759E-02 0.000E+00

     total cpu time spent up to now is      180.3 secs

     total energy              =     -83.07483983 Ry
     Harris-Foulkes estimate   =     -83.06907130 Ry
     estimated scf accuracy    <       0.38989448 Ry

     iteration # 48     ecut=    47.00 Ry     beta= 0.70
     Davidson diagonalization with overlap
     ethr =  4.84E-07,  avg # of iterations =  2.0

     negative rho (up, down):  2.738E-02 0.000E+00

     total cpu time spent up to now is      183.2 secs

     total energy              =     -83.07280698 Ry
     Harris-Foulkes estimate   =     -83.07484536 Ry
     estimated scf accuracy    <       0.40510684 Ry

     iteration # 49     ecut=    47.00 Ry     beta= 0.70
     Davidson diagonalization with overlap
     ethr =  4.84E-07,  avg # of iterations =  1.0

     negative rho (up, down):  2.887E-02 0.000E+00

     total cpu time spent up to now is      186.1 secs

     total energy              =     -82.90032377 Ry
     Harris-Foulkes estimate   =     -83.07280813 Ry
     estimated scf accuracy    <       0.39981949 Ry

     iteration # 50     ecut=    47.00 Ry     beta= 0.70
     Davidson diagonalization with overlap
     ethr =  4.84E-07,  avg # of iterations = 15.0

     negative rho (up, down):  1.837E-02 0.000E+00

     total cpu time spent up to now is      191.0 secs

     total energy              =     -82.96604001 Ry
     Harris-Foulkes estimate   =     -83.07133713 Ry
     estimated scf accuracy    <       0.39046734 Ry

     iteration # 51     ecut=    47.00 Ry     beta= 0.70
     Davidson diagonalization with overlap
     ethr =  4.84E-07,  avg # of iterations =  9.0

     negative rho (up, down):  1.770E-02 0.000E+00

     total cpu time spent up to now is      195.3 secs

     total energy              =     -82.95483408 Ry
     Harris-Foulkes estimate   =     -82.96912035 Ry
     estimated scf accuracy    <       0.12915040 Ry

     iteration # 52     ecut=    47.00 Ry     beta= 0.70
     Davidson diagonalization with overlap
     ethr =  4.84E-07,  avg # of iterations =  3.0

     negative rho (up, down):  1.856E-02 0.000E+00

     total cpu time spent up to now is      198.6 secs

     total energy              =     -82.93440775 Ry
     Harris-Foulkes estimate   =     -82.95495170 Ry
     estimated scf accuracy    <       0.09420538 Ry

     iteration # 53     ecut=    47.00 Ry     beta= 0.70
     Davidson diagonalization with overlap
     ethr =  4.84E-07,  avg # of iterations =  5.0

     negative rho (up, down):  2.051E-02 0.000E+00

     total cpu time spent up to now is      202.3 secs

     total energy              =     -82.92466433 Ry
     Harris-Foulkes estimate   =     -82.93487521 Ry
     estimated scf accuracy    <       0.04379694 Ry

     iteration # 54     ecut=    47.00 Ry     beta= 0.70
     Davidson diagonalization with overlap
     ethr =  4.84E-07,  avg # of iterations =  3.0

     negative rho (up, down):  2.090E-02 0.000E+00

     total cpu time spent up to now is      205.7 secs

     total energy              =     -82.92355615 Ry
     Harris-Foulkes estimate   =     -82.92488533 Ry
     estimated scf accuracy    <       0.01860784 Ry

     iteration # 55     ecut=    47.00 Ry     beta= 0.70
     Davidson diagonalization with overlap
     ethr =  4.84E-07,  avg # of iterations =  2.0

     negative rho (up, down):  2.137E-02 0.000E+00

     total cpu time spent up to now is      208.5 secs

     total energy              =     -82.92231348 Ry
     Harris-Foulkes estimate   =     -82.92356202 Ry
     estimated scf accuracy    <       0.01532864 Ry

     iteration # 56     ecut=    47.00 Ry     beta= 0.70
     Davidson diagonalization with overlap
     ethr =  4.84E-07,  avg # of iterations = 10.0

     negative rho (up, down):  2.128E-02 0.000E+00

     total cpu time spent up to now is      212.6 secs

     total energy              =     -83.01165134 Ry
     Harris-Foulkes estimate   =     -83.01261923 Ry
     estimated scf accuracy    <       0.23937025 Ry

     iteration # 57     ecut=    47.00 Ry     beta= 0.70
     Davidson diagonalization with overlap
     ethr =  4.84E-07,  avg # of iterations =  1.0

     negative rho (up, down):  2.094E-02 0.000E+00

     total cpu time spent up to now is      215.3 secs

     total energy              =     -83.00799766 Ry
     Harris-Foulkes estimate   =     -83.01165168 Ry
     estimated scf accuracy    <       0.23695272 Ry

     iteration # 58     ecut=    47.00 Ry     beta= 0.70
     Davidson diagonalization with overlap
     ethr =  4.84E-07,  avg # of iterations =  2.0

     negative rho (up, down):  2.048E-02 0.000E+00

     total cpu time spent up to now is      218.2 secs

     total energy              =     -83.00292115 Ry
     Harris-Foulkes estimate   =     -83.00800180 Ry
     estimated scf accuracy    <       0.22765983 Ry

     iteration # 59     ecut=    47.00 Ry     beta= 0.70
     Davidson diagonalization with overlap
     ethr =  4.84E-07,  avg # of iterations =  2.0

     negative rho (up, down):  2.043E-02 0.000E+00

     total cpu time spent up to now is      221.0 secs

     total energy              =     -83.00236878 Ry
     Harris-Foulkes estimate   =     -83.00292855 Ry
     estimated scf accuracy    <       0.21485391 Ry

     iteration # 60     ecut=    47.00 Ry     beta= 0.70
     Davidson diagonalization with overlap
     ethr =  4.84E-07,  avg # of iterations =  1.0

     negative rho (up, down):  2.042E-02 0.000E+00

     total cpu time spent up to now is      223.8 secs

     total energy              =     -83.00221983 Ry
     Harris-Foulkes estimate   =     -83.00236987 Ry
     estimated scf accuracy    <       0.21344550 Ry

     iteration # 61     ecut=    47.00 Ry     beta= 0.70
     Davidson diagonalization with overlap
     ethr =  4.84E-07,  avg # of iterations =  1.0

     negative rho (up, down):  1.976E-02 0.000E+00

     total cpu time spent up to now is      226.5 secs

     total energy              =     -82.99445910 Ry
     Harris-Foulkes estimate   =     -83.00222056 Ry
     estimated scf accuracy    <       0.21302475 Ry

     iteration # 62     ecut=    47.00 Ry     beta= 0.70
     Davidson diagonalization with overlap
     ethr =  4.84E-07,  avg # of iterations =  3.0

     negative rho (up, down):  2.055E-02 0.000E+00

     total cpu time spent up to now is      229.7 secs

     total energy              =     -83.00358939 Ry
     Harris-Foulkes estimate   =     -82.99448575 Ry
     estimated scf accuracy    <       0.19315069 Ry

     iteration # 63     ecut=    47.00 Ry     beta= 0.70
     Davidson diagonalization with overlap
     ethr =  4.84E-07,  avg # of iterations =  3.0

     negative rho (up, down):  2.077E-02 0.000E+00

     total cpu time spent up to now is      233.1 secs

     total energy              =     -83.00595198 Ry
     Harris-Foulkes estimate   =     -83.00361693 Ry
     estimated scf accuracy    <       0.21637175 Ry

     iteration # 64     ecut=    47.00 Ry     beta= 0.70
     Davidson diagonalization with overlap
     ethr =  4.84E-07,  avg # of iterations =  1.0

     negative rho (up, down):  2.600E-02 0.000E+00

     total cpu time spent up to now is      235.9 secs

     total energy              =     -82.90851213 Ry
     Harris-Foulkes estimate   =     -83.00595329 Ry
     estimated scf accuracy    <       0.22219644 Ry

     iteration # 65     ecut=    47.00 Ry     beta= 0.70
     Davidson diagonalization with overlap
     ethr =  4.84E-07,  avg # of iterations = 16.0

     negative rho (up, down):  2.066E-02 0.000E+00

     total cpu time spent up to now is      241.0 secs

     total energy              =     -83.00404671 Ry
     Harris-Foulkes estimate   =     -83.05863352 Ry
     estimated scf accuracy    <       0.36005181 Ry

     iteration # 66     ecut=    47.00 Ry     beta= 0.70
     Davidson diagonalization with overlap
     ethr =  4.84E-07,  avg # of iterations =  5.0

     negative rho (up, down):  1.917E-02 0.000E+00

     total cpu time spent up to now is      244.8 secs

     total energy              =     -82.98667269 Ry
     Harris-Foulkes estimate   =     -83.00478150 Ry
     estimated scf accuracy    <       0.21914972 Ry

     iteration # 67     ecut=    47.00 Ry     beta= 0.70
     Davidson diagonalization with overlap
     ethr =  4.84E-07,  avg # of iterations =  5.0

     negative rho (up, down):  1.774E-02 0.000E+00

     total cpu time spent up to now is      248.3 secs

     total energy              =     -82.96022509 Ry
     Harris-Foulkes estimate   =     -82.98678950 Ry
     estimated scf accuracy    <       0.17354226 Ry

     iteration # 68     ecut=    47.00 Ry     beta= 0.70
     Davidson diagonalization with overlap
     ethr =  4.84E-07,  avg # of iterations =  4.0

     negative rho (up, down):  1.771E-02 0.000E+00

     total cpu time spent up to now is      251.6 secs

     total energy              =     -82.94709017 Ry
     Harris-Foulkes estimate   =     -82.96054815 Ry
     estimated scf accuracy    <       0.10788651 Ry

     iteration # 69     ecut=    47.00 Ry     beta= 0.70
     Davidson diagonalization with overlap
     ethr =  4.84E-07,  avg # of iterations =  3.0

     negative rho (up, down):  1.846E-02 0.000E+00

     total cpu time spent up to now is      254.9 secs

     total energy              =     -82.93554489 Ry
     Harris-Foulkes estimate   =     -82.94721805 Ry
     estimated scf accuracy    <       0.07467314 Ry

     iteration # 70     ecut=    47.00 Ry     beta= 0.70
     Davidson diagonalization with overlap
     ethr =  4.84E-07,  avg # of iterations =  3.0

     negative rho (up, down):  1.818E-02 0.000E+00

     total cpu time spent up to now is      258.2 secs

     total energy              =     -82.93847362 Ry
     Harris-Foulkes estimate   =     -82.93569090 Ry
     estimated scf accuracy    <       0.04586964 Ry

     iteration # 71     ecut=    47.00 Ry     beta= 0.70
     Davidson diagonalization with overlap
     ethr =  4.84E-07,  avg # of iterations =  2.0

     negative rho (up, down):  2.006E-02 0.000E+00

     total cpu time spent up to now is      261.1 secs

     total energy              =     -82.92613913 Ry
     Harris-Foulkes estimate   =     -82.93848185 Ry
     estimated scf accuracy    <       0.05270065 Ry

     iteration # 72     ecut=    47.00 Ry     beta= 0.70
     Davidson diagonalization with overlap
     ethr =  4.84E-07,  avg # of iterations =  3.0

     negative rho (up, down):  2.060E-02 0.000E+00

     total cpu time spent up to now is      264.5 secs

     total energy              =     -82.92449305 Ry
     Harris-Foulkes estimate   =     -82.92638631 Ry
     estimated scf accuracy    <       0.02240080 Ry

     iteration # 73     ecut=    47.00 Ry     beta= 0.70
     Davidson diagonalization with overlap
     ethr =  4.84E-07,  avg # of iterations =  2.0

     negative rho (up, down):  2.608E-02 0.000E+00

     total cpu time spent up to now is      267.5 secs

     total energy              =     -82.91695221 Ry
     Harris-Foulkes estimate   =     -82.92450242 Ry
     estimated scf accuracy    <       0.01771024 Ry

     iteration # 74     ecut=    47.00 Ry     beta= 0.70
     Davidson diagonalization with overlap
     ethr =  4.84E-07,  avg # of iterations =  4.0

     negative rho (up, down):  2.613E-02 0.000E+00

     total cpu time spent up to now is      271.1 secs

     total energy              =     -82.91774067 Ry
     Harris-Foulkes estimate   =     -82.91774199 Ry
     estimated scf accuracy    <       0.00001674 Ry

     iteration # 75     ecut=    47.00 Ry     beta= 0.70
     Davidson diagonalization with overlap
     ethr =  1.40E-07,  avg # of iterations =  1.0

     negative rho (up, down):  2.622E-02 0.000E+00

     total cpu time spent up to now is      273.9 secs

     total energy              =     -82.91773823 Ry
     Harris-Foulkes estimate   =     -82.91774079 Ry
     estimated scf accuracy    <       0.00001480 Ry

     iteration # 76     ecut=    47.00 Ry     beta= 0.70
     Davidson diagonalization with overlap
     ethr =  1.23E-07,  avg # of iterations = 12.0

     negative rho (up, down):  2.257E-02 0.000E+00

     total cpu time spent up to now is      277.8 secs

     total energy              =     -83.02384422 Ry
     Harris-Foulkes estimate   =     -83.05891452 Ry
     estimated scf accuracy    <       0.36141793 Ry

     iteration # 77     ecut=    47.00 Ry     beta= 0.70
     Davidson diagonalization with overlap
     ethr =  1.23E-07,  avg # of iterations =  5.0

     negative rho (up, down):  1.921E-02 0.000E+00

     total cpu time spent up to now is      281.5 secs

     total energy              =     -82.98701768 Ry
     Harris-Foulkes estimate   =     -83.02411293 Ry
     estimated scf accuracy    <       0.26913699 Ry

     iteration # 78     ecut=    47.00 Ry     beta= 0.70
     Davidson diagonalization with overlap
     ethr =  1.23E-07,  avg # of iterations =  4.0

     negative rho (up, down):  1.847E-02 0.000E+00

     total cpu time spent up to now is      285.1 secs

     total energy              =     -82.97700664 Ry
     Harris-Foulkes estimate   =     -82.98742672 Ry
     estimated scf accuracy    <       0.17524159 Ry

     iteration # 79     ecut=    47.00 Ry     beta= 0.70
     Davidson diagonalization with overlap
     ethr =  1.23E-07,  avg # of iterations =  3.0

     negative rho (up, down):  1.796E-02 0.000E+00

     total cpu time spent up to now is      288.4 secs

     total energy              =     -82.96751427 Ry
     Harris-Foulkes estimate   =     -82.97705060 Ry
     estimated scf accuracy    <       0.14914810 Ry

     iteration # 80     ecut=    47.00 Ry     beta= 0.70
     Davidson diagonalization with overlap
     ethr =  1.23E-07,  avg # of iterations =  3.0

     negative rho (up, down):  2.031E-02 0.000E+00

     total cpu time spent up to now is      291.8 secs

     total energy              =     -82.99990783 Ry
     Harris-Foulkes estimate   =     -82.96755754 Ry
     estimated scf accuracy    <       0.12538401 Ry

     iteration # 81     ecut=    47.00 Ry     beta= 0.70
     Davidson diagonalization with overlap
     ethr =  1.23E-07,  avg # of iterations =  6.0

     negative rho (up, down):  1.914E-02 0.000E+00

     total cpu time spent up to now is      295.6 secs

     total energy              =     -82.98643238 Ry
     Harris-Foulkes estimate   =     -83.00034406 Ry
     estimated scf accuracy    <       0.20801492 Ry

     iteration # 82     ecut=    47.00 Ry     beta= 0.70
     Davidson diagonalization with overlap
     ethr =  1.23E-07,  avg # of iterations =  3.0

     negative rho (up, down):  2.865E-02 0.000E+00

     total cpu time spent up to now is      299.0 secs

     total energy              =     -83.08214120 Ry
     Harris-Foulkes estimate   =     -82.98649809 Ry
     estimated scf accuracy    <       0.17298303 Ry

     iteration # 83     ecut=    47.00 Ry     beta= 0.70
     Davidson diagonalization with overlap
     ethr =  1.23E-07,  avg # of iterations =  4.0

     negative rho (up, down):  2.698E-02 0.000E+00

     total cpu time spent up to now is      302.8 secs

     total energy              =     -83.06871411 Ry
     Harris-Foulkes estimate   =     -83.08442797 Ry
     estimated scf accuracy    <       0.43119611 Ry

     iteration # 84     ecut=    47.00 Ry     beta= 0.70
     Davidson diagonalization with overlap
     ethr =  1.23E-07,  avg # of iterations =  3.0

     negative rho (up, down):  2.547E-02 0.000E+00

     total cpu time spent up to now is      306.2 secs

     total energy              =     -82.90215627 Ry
     Harris-Foulkes estimate   =     -83.06875803 Ry
     estimated scf accuracy    <       0.38826046 Ry

     iteration # 85     ecut=    47.00 Ry     beta= 0.70
     Davidson diagonalization with overlap
     ethr =  1.23E-07,  avg # of iterations = 17.0

     negative rho (up, down):  1.942E-02 0.000E+00

     total cpu time spent up to now is      311.5 secs

     total energy              =     -82.98872937 Ry
     Harris-Foulkes estimate   =     -83.05669131 Ry
     estimated scf accuracy    <       0.35590867 Ry

     iteration # 86     ecut=    47.00 Ry     beta= 0.70
     Davidson diagonalization with overlap
     ethr =  1.23E-07,  avg # of iterations =  6.0

     negative rho (up, down):  1.800E-02 0.000E+00

     total cpu time spent up to now is      315.5 secs

     total energy              =     -82.96749634 Ry
     Harris-Foulkes estimate   =     -82.98998378 Ry
     estimated scf accuracy    <       0.18161627 Ry

     iteration # 87     ecut=    47.00 Ry     beta= 0.70
     Davidson diagonalization with overlap
     ethr =  1.23E-07,  avg # of iterations =  4.0

     negative rho (up, down):  1.764E-02 0.000E+00

     total cpu time spent up to now is      319.0 secs

     total energy              =     -82.95049643 Ry
     Harris-Foulkes estimate   =     -82.96771238 Ry
     estimated scf accuracy    <       0.12573604 Ry

     iteration # 88     ecut=    47.00 Ry     beta= 0.70
     Davidson diagonalization with overlap
     ethr =  1.23E-07,  avg # of iterations =  4.0

     negative rho (up, down):  1.776E-02 0.000E+00

     total cpu time spent up to now is      322.3 secs

     total energy              =     -82.94542007 Ry
     Harris-Foulkes estimate   =     -82.95067778 Ry
     estimated scf accuracy    <       0.08330443 Ry

     iteration # 89     ecut=    47.00 Ry     beta= 0.70
     Davidson diagonalization with overlap
     ethr =  1.23E-07,  avg # of iterations =  3.0

     negative rho (up, down):  2.001E-02 0.000E+00

     total cpu time spent up to now is      325.8 secs

     total energy              =     -82.92604324 Ry
     Harris-Foulkes estimate   =     -82.94544356 Ry
     estimated scf accuracy    <       0.07025118 Ry

     iteration # 90     ecut=    47.00 Ry     beta= 0.70
     Davidson diagonalization with overlap
     ethr =  1.23E-07,  avg # of iterations =  4.0

     negative rho (up, down):  2.011E-02 0.000E+00

     total cpu time spent up to now is      329.4 secs

     total energy              =     -82.92618151 Ry
     Harris-Foulkes estimate   =     -82.92658409 Ry
     estimated scf accuracy    <       0.02291269 Ry

     iteration # 91     ecut=    47.00 Ry     beta= 0.70
     Davidson diagonalization with overlap
     ethr =  1.23E-07,  avg # of iterations =  1.0

     negative rho (up, down):  2.103E-02 0.000E+00

     total cpu time spent up to now is      332.2 secs

     total energy              =     -82.92316311 Ry
     Harris-Foulkes estimate   =     -82.92618185 Ry
     estimated scf accuracy    <       0.02191763 Ry

     iteration # 92     ecut=    47.00 Ry     beta= 0.70
     Davidson diagonalization with overlap
     ethr =  1.23E-07,  avg # of iterations =  3.0

     negative rho (up, down):  2.137E-02 0.000E+00

     total cpu time spent up to now is      335.6 secs

     total energy              =     -82.92232354 Ry
     Harris-Foulkes estimate   =     -82.92319964 Ry
     estimated scf accuracy    <       0.01426476 Ry

     iteration # 93     ecut=    47.00 Ry     beta= 0.70
     Davidson diagonalization with overlap
     ethr =  1.23E-07,  avg # of iterations =  2.0

     negative rho (up, down):  2.585E-02 0.000E+00

     total cpu time spent up to now is      338.6 secs

     total energy              =     -82.91721958 Ry
     Harris-Foulkes estimate   =     -82.92232652 Ry
     estimated scf accuracy    <       0.01206884 Ry

     iteration # 94     ecut=    47.00 Ry     beta= 0.70
     Davidson diagonalization with overlap
     ethr =  1.23E-07,  avg # of iterations =  4.0

     negative rho (up, down):  2.584E-02 0.000E+00

     total cpu time spent up to now is      342.2 secs

     End of self-consistent calculation

          k = 0.0000 0.0000 0.0000 ( 61953 PWs)   bands (ev):

   -31.9667 -19.9990 -13.1148 -13.0101 -11.9998  -5.5807

     highest occupied level (ev):    -5.5807

!    total energy              =     -82.91773442 Ry
     Harris-Foulkes estimate   =     -82.91773788 Ry
     estimated scf accuracy    <       0.00000458 Ry

     total all-electron energy =      -300.611515 Ry

     The total energy is the sum of the following terms:

     one-electron contribution =    -135.87377981 Ry
     hartree contribution      =      70.15624019 Ry
     xc contribution           =     -14.41119417 Ry
     ewald contribution        =      16.41220757 Ry
     one-center paw contrib.   =     -19.20120820 Ry

     convergence has been achieved in  94 iterations

     negative rho (up, down):  2.584E-02 0.000E+00

     Forces acting on atoms (cartesian axes, Ry/au):

     atom    1 type  1   force =     0.00000000    0.00000000    0.01834418
     atom    2 type  1   force =     0.00000000    0.00000000   -0.01834418

     Total force =     0.018344     Total SCF correction =     0.002986
     SCF correction compared to forces is large: reduce conv_thr to get better values

     number of scf cycles    =   2
     number of bfgs steps    =   1

     energy   old            =     -82.9178226329 Ry
     energy   new            =     -82.9177344182 Ry

     CASE: energy  _new > energy  _old

     new trust radius        =       0.0048857461 bohr
     new conv_thr            =       0.0000100000 Ry


ATOMIC_POSITIONS (angstrom)
O        0.000000000   0.000000000   0.000000000    0   0   0
O        0.000000000   0.000000000   1.232585425    0   0   1



     Writing output data file pwscf.save/
     Message from routine punch:
     wavefunctions written to file
     NEW-OLD atomic charge density approx. for the potential

     Check: negative core charge=   -0.000001

     negative rho (up, down):  2.590E-02 0.000E+00

     total cpu time spent up to now is      346.1 secs

     Self-consistent Calculation

     iteration #  1     ecut=    47.00 Ry     beta= 0.70
     Davidson diagonalization with overlap
     ethr =  1.00E-06,  avg # of iterations =  4.0

     negative rho (up, down):  2.584E-02 0.000E+00

     total cpu time spent up to now is      350.0 secs

     total energy              =     -82.91779740 Ry
     Harris-Foulkes estimate   =     -82.91840912 Ry
     estimated scf accuracy    <       0.00010342 Ry

     iteration #  2     ecut=    47.00 Ry     beta= 0.70
     Davidson diagonalization with overlap
     ethr =  8.62E-07,  avg # of iterations = 13.0

     negative rho (up, down):  2.581E-02 0.000E+00

     total cpu time spent up to now is      354.5 secs

     total energy              =     -83.05781303 Ry
     Harris-Foulkes estimate   =     -83.05804498 Ry
     estimated scf accuracy    <       0.35935081 Ry

     iteration #  3     ecut=    47.00 Ry     beta= 0.70
     Davidson diagonalization with overlap
     ethr =  8.62E-07,  avg # of iterations =  1.0

     negative rho (up, down):  2.890E-02 0.000E+00

     total cpu time spent up to now is      357.3 secs

     total energy              =     -83.08690967 Ry
     Harris-Foulkes estimate   =     -83.05781313 Ry
     estimated scf accuracy    <       0.35875723 Ry

     iteration #  4     ecut=    47.00 Ry     beta= 0.70
     Davidson diagonalization with overlap
     ethr =  8.62E-07,  avg # of iterations =  3.0

     negative rho (up, down):  2.226E-02 0.000E+00

     total cpu time spent up to now is      360.6 secs

     total energy              =     -83.02174495 Ry
     Harris-Foulkes estimate   =     -83.08706672 Ry
     estimated scf accuracy    <       0.43905835 Ry

     iteration #  5     ecut=    47.00 Ry     beta= 0.70
     Davidson diagonalization with overlap
     ethr =  8.62E-07,  avg # of iterations =  5.0

     negative rho (up, down):  3.056E-02 0.000E+00

     total cpu time spent up to now is      364.3 secs

     total energy              =     -83.10175448 Ry
     Harris-Foulkes estimate   =     -83.02259402 Ry
     estimated scf accuracy    <       0.26561397 Ry

     iteration #  6     ecut=    47.00 Ry     beta= 0.70
     Davidson diagonalization with overlap
     ethr =  8.62E-07,  avg # of iterations =  5.0

     negative rho (up, down):  1.966E-02 0.000E+00

     total cpu time spent up to now is      367.9 secs

     total energy              =     -82.99143823 Ry
     Harris-Foulkes estimate   =     -83.10302249 Ry
     estimated scf accuracy    <       0.48453663 Ry

     iteration #  7     ecut=    47.00 Ry     beta= 0.70
     Davidson diagonalization with overlap
     ethr =  8.62E-07,  avg # of iterations =  5.0

     negative rho (up, down):  2.243E-02 0.000E+00

     total cpu time spent up to now is      371.7 secs

     total energy              =     -82.91515319 Ry
     Harris-Foulkes estimate   =     -82.99403999 Ry
     estimated scf accuracy    <       0.19206539 Ry

     iteration #  8     ecut=    47.00 Ry     beta= 0.70
     Davidson diagonalization with overlap
     ethr =  8.62E-07,  avg # of iterations =  4.0

     negative rho (up, down):  2.262E-02 0.000E+00

     total cpu time spent up to now is      375.4 secs

     total energy              =     -82.92015271 Ry
     Harris-Foulkes estimate   =     -82.92045952 Ry
     estimated scf accuracy    <       0.00688164 Ry

     iteration #  9     ecut=    47.00 Ry     beta= 0.70
     Davidson diagonalization with overlap
     ethr =  8.62E-07,  avg # of iterations =  1.0

     negative rho (up, down):  2.284E-02 0.000E+00

     total cpu time spent up to now is      378.2 secs

     total energy              =     -82.91978225 Ry
     Harris-Foulkes estimate   =     -82.92015354 Ry
     estimated scf accuracy    <       0.00610858 Ry

     iteration # 10     ecut=    47.00 Ry     beta= 0.70
     Davidson diagonalization with overlap
     ethr =  8.62E-07,  avg # of iterations =  1.0

     negative rho (up, down):  2.582E-02 0.000E+00

     total cpu time spent up to now is      381.0 secs

     total energy              =     -82.91760216 Ry
     Harris-Foulkes estimate   =     -82.91978400 Ry
     estimated scf accuracy    <       0.00519957 Ry

     iteration # 11     ecut=    47.00 Ry     beta= 0.70
     Davidson diagonalization with overlap
     ethr =  8.62E-07,  avg # of iterations =  3.0

     negative rho (up, down):  2.576E-02 0.000E+00

     total cpu time spent up to now is      384.5 secs

     total energy              =     -82.91785737 Ry
     Harris-Foulkes estimate   =     -82.91785808 Ry
     estimated scf accuracy    <       0.00002461 Ry

     iteration # 12     ecut=    47.00 Ry     beta= 0.70
     Davidson diagonalization with overlap
     ethr =  2.05E-07,  avg # of iterations =  1.0

     negative rho (up, down):  2.580E-02 0.000E+00

     total cpu time spent up to now is      387.3 secs

     total energy              =     -82.91784291 Ry
     Harris-Foulkes estimate   =     -82.91785747 Ry
     estimated scf accuracy    <       0.00002369 Ry

     iteration # 13     ecut=    47.00 Ry     beta= 0.70
     Davidson diagonalization with overlap
     ethr =  1.97E-07,  avg # of iterations =  3.0

     negative rho (up, down):  2.577E-02 0.000E+00

     total cpu time spent up to now is      390.1 secs

     End of self-consistent calculation

          k = 0.0000 0.0000 0.0000 ( 61953 PWs)   bands (ev):

   -32.0626 -19.9562 -13.1221 -13.0477 -12.0378  -5.5401

     highest occupied level (ev):    -5.5401

!    total energy              =     -82.91784692 Ry
     Harris-Foulkes estimate   =     -82.91784703 Ry
     estimated scf accuracy    <       0.00000028 Ry

     total all-electron energy =      -300.611627 Ry

     The total energy is the sum of the following terms:

     one-electron contribution =    -136.09935691 Ry
     hartree contribution      =      70.26932265 Ry
     xc contribution           =     -14.42056426 Ry
     ewald contribution        =      16.53377564 Ry
     one-center paw contrib.   =     -19.20102404 Ry

     convergence has been achieved in  13 iterations

     negative rho (up, down):  2.577E-02 0.000E+00

     Forces acting on atoms (cartesian axes, Ry/au):

     atom    1 type  1   force =     0.00000000    0.00000000    0.00803431
     atom    2 type  1   force =     0.00000000    0.00000000   -0.00803431

     Total force =     0.008034     Total SCF correction =     0.000020

     bfgs converged in   3 scf cycles and   1 bfgs steps
     (criteria: energy <  1.0E-03 Ry, force <  1.0E-02 Ry/Bohr)

     End of BFGS Geometry Optimization

     Final energy   =     -82.9178469247 Ry
Begin final coordinates

ATOMIC_POSITIONS (angstrom)
O        0.000000000   0.000000000   0.000000000    0   0   0
O        0.000000000   0.000000000   1.232585425    0   0   1
End final coordinates



     Writing output data file pwscf.save/

     init_run     :      2.36s CPU      2.55s WALL (       1 calls)
     electrons    :    363.38s CPU    379.70s WALL (       3 calls)
     update_pot   :      2.57s CPU      2.70s WALL (       2 calls)
     forces       :      5.38s CPU      5.72s WALL (       3 calls)

     Called by init_run:
     wfcinit      :      0.44s CPU      0.44s WALL (       1 calls)
     potinit      :      0.89s CPU      0.95s WALL (       1 calls)
     hinit0       :      0.59s CPU      0.61s WALL (       1 calls)

     Called by electrons:
     c_bands      :    141.69s CPU    141.82s WALL (     112 calls)
     sum_band     :     66.53s CPU     74.67s WALL (     112 calls)
     v_of_rho     :     95.65s CPU     95.98s WALL (     115 calls)
     newd         :     34.65s CPU     42.59s WALL (     115 calls)
     PAW_pot      :      5.02s CPU      5.02s WALL (     117 calls)
     mix_rho      :     21.45s CPU     21.56s WALL (     112 calls)

     Called by c_bands:
     init_us_2    :      1.69s CPU      1.69s WALL (     227 calls)
     regterg      :    139.69s CPU    139.82s WALL (     112 calls)

     Called by sum_band:
     sum_band:bec :      0.00s CPU      0.00s WALL (     114 calls)
     addusdens    :     28.62s CPU     36.73s WALL (     112 calls)

     Called by *egterg:
     h_psi        :    120.80s CPU    120.87s WALL (     562 calls)
     s_psi        :      3.02s CPU      3.02s WALL (     562 calls)
     g_psi        :      0.34s CPU      0.34s WALL (     449 calls)
     rdiaghg      :      0.03s CPU      0.03s WALL (     559 calls)

     Called by h_psi:
     h_psi:pot    :    120.49s CPU    120.56s WALL (     562 calls)
     h_psi:calbec :      5.50s CPU      5.51s WALL (     562 calls)
     vloc_psi     :    111.98s CPU    112.04s WALL (     562 calls)
     add_vuspsi   :      3.01s CPU      3.01s WALL (     562 calls)

     General routines
     calbec       :      7.18s CPU      7.19s WALL (     688 calls)
     fft          :     88.20s CPU     88.28s WALL (    1064 calls)
     ffts         :      9.70s CPU      9.71s WALL (     112 calls)
     fftw         :    117.02s CPU    117.07s WALL (    2966 calls)
     davcio       :      0.00s CPU      0.00s WALL (       2 calls)


     PWSCF        :   6m14.90s CPU   6m32.08s WALL


   This run was terminated on:   1:25:28  14Nov2019            

=------------------------------------------------------------------------------=
   JOB DONE.
=------------------------------------------------------------------------------=
