
     Program PWSCF v.6.4.1 starts on 10Nov2019 at 15: 9:24 

     This program is part of the open-source Quantum ESPRESSO suite
     for quantum simulation of materials; please cite
         "P. Giannozzi et al., J. Phys.:Condens. Matter 21 395502 (2009);
         "P. Giannozzi et al., J. Phys.:Condens. Matter 29 465901 (2017);
          URL http://www.quantum-espresso.org", 
     in publications or presentations arising from this work. More details at
     http://www.quantum-espresso.org/quote

     Serial version
     Waiting for input...
     Reading input from standard input

     Current dimensions of program PWSCF are:
     Max number of different atomic species (ntypx) = 10
     Max number of k-points (npk) =  40000
     Max angular momentum in pseudopotentials (lmaxx) =  3
               file Al.pbe-nl-kjpaw_psl.1.0.0.UPF: wavefunction(s)  3S 3P renormalized

     G-vector sticks info
     --------------------
     sticks:   dense  smooth     PW     G-vecs:    dense   smooth      PW
     Sum         211     211     85                 2085     2085     531



     bravais-lattice index     =            2
     lattice parameter (alat)  =       7.3699  a.u.
     unit-cell volume          =     100.0761 (a.u.)^3
     number of atoms/cell      =            1
     number of atomic types    =            1
     number of electrons       =         3.00
     number of Kohn-Sham states=            6
     kinetic-energy cutoff     =      29.0000  Ry
     charge density cutoff     =     116.0000  Ry
     convergence threshold     =      1.0E-05
     mixing beta               =       0.7000
     number of iterations used =            8  plain     mixing
     Exchange-correlation      = SLA PW PBX PBC ( 1  4  3  4 0 0)

     celldm(1)=   7.369932  celldm(2)=   0.000000  celldm(3)=   0.000000
     celldm(4)=   0.000000  celldm(5)=   0.000000  celldm(6)=   0.000000

     crystal axes: (cart. coord. in units of alat)
               a(1) = (  -0.500000   0.000000   0.500000 )  
               a(2) = (   0.000000   0.500000   0.500000 )  
               a(3) = (  -0.500000   0.500000   0.000000 )  

     reciprocal axes: (cart. coord. in units 2 pi/alat)
               b(1) = ( -1.000000 -1.000000  1.000000 )  
               b(2) = (  1.000000  1.000000  1.000000 )  
               b(3) = ( -1.000000  1.000000 -1.000000 )  


     PseudoPot. # 1 for Al read from file:
     ./Al.pbe-nl-kjpaw_psl.1.0.0.UPF
     MD5 check sum: 8cf6d98cc7ef3f4b729b574060f3a10f
     Pseudo is Projector augmented-wave + core cor, Zval =  3.0
     Generated using "atomic" code by A. Dal Corso v.6.3
     Shape of augmentation charge: PSQ
     Using radial grid of 1135 points,  4 beta functions with: 
                l(1) =   0
                l(2) =   0
                l(3) =   1
                l(4) =   1
     Q(r) pseudized with 0 coefficients 


     atomic species   valence    mass     pseudopotential
        Al             3.00    26.98200     Al( 1.00)

     48 Sym. Ops., with inversion, found



   Cartesian axes

     site n.     atom                  positions (alat units)
         1           Al  tau(   1) = (   0.0000000   0.0000000   0.0000000  )

     number of k points=    19  Methfessel-Paxton smearing, width (Ry)=  0.1000
                       cart. coord. in units 2pi/alat
        k(    1) = (  -0.1000000   0.1000000   0.1000000), wk =   0.0320000
        k(    2) = (  -0.3000000   0.3000000  -0.1000000), wk =   0.0960000
        k(    3) = (   0.5000000  -0.5000000   0.7000000), wk =   0.0960000
        k(    4) = (   0.3000000  -0.3000000   0.5000000), wk =   0.0960000
        k(    5) = (   0.1000000  -0.1000000   0.3000000), wk =   0.0960000
        k(    6) = (  -0.1000000   0.5000000   0.1000000), wk =   0.0960000
        k(    7) = (   0.7000000  -0.3000000   0.9000000), wk =   0.1920000
        k(    8) = (   0.5000000  -0.1000000   0.7000000), wk =   0.1920000
        k(    9) = (   0.3000000   0.1000000   0.5000000), wk =   0.1920000
        k(   10) = (  -0.1000000  -1.1000000   0.1000000), wk =   0.0960000
        k(   11) = (  -0.3000000  -0.9000000  -0.1000000), wk =   0.1920000
        k(   12) = (  -0.5000000  -0.7000000  -0.3000000), wk =   0.0960000
        k(   13) = (  -0.1000000  -0.7000000   0.1000000), wk =   0.0960000
        k(   14) = (  -0.3000000   0.3000000   0.3000000), wk =   0.0320000
        k(   15) = (   0.5000000  -0.5000000   1.1000000), wk =   0.0960000
        k(   16) = (   0.3000000  -0.3000000   0.9000000), wk =   0.0960000
        k(   17) = (  -0.3000000  -1.3000000   0.3000000), wk =   0.0960000
        k(   18) = (  -0.5000000  -1.1000000   0.1000000), wk =   0.0960000
        k(   19) = (   0.5000000  -0.5000000  -0.5000000), wk =   0.0160000

     Dense  grid:     2085 G-vectors     FFT dimensions: (  18,  18,  18)

     Estimated max dynamical RAM per process >       3.47 MB

     Initial potential from superposition of free atoms

     starting charge    2.99771, renormalised to    3.00000
     Starting wfcs are    4 randomized atomic wfcs +    2 random wfcs

     total cpu time spent up to now is        0.4 secs

     Self-consistent Calculation

     iteration #  1     ecut=    29.00 Ry     beta= 0.70
     Davidson diagonalization with overlap
     ethr =  1.00E-02,  avg # of iterations =  4.8

     Threshold (ethr) on eigenvalues was too large:
     Diagonalizing with lowered threshold

     Davidson diagonalization with overlap
     ethr =  1.88E-04,  avg # of iterations =  2.1

     total cpu time spent up to now is        0.6 secs

     total energy              =     -39.49766414 Ry
     Harris-Foulkes estimate   =     -39.49915289 Ry
     estimated scf accuracy    <       0.00558651 Ry

     iteration #  2     ecut=    29.00 Ry     beta= 0.70
     Davidson diagonalization with overlap
     ethr =  1.86E-04,  avg # of iterations =  1.0

     total cpu time spent up to now is        0.6 secs

     total energy              =     -39.49763879 Ry
     Harris-Foulkes estimate   =     -39.49774060 Ry
     estimated scf accuracy    <       0.00040862 Ry

     iteration #  3     ecut=    29.00 Ry     beta= 0.70
     Davidson diagonalization with overlap
     ethr =  1.36E-05,  avg # of iterations =  1.6

     total cpu time spent up to now is        0.7 secs

     End of self-consistent calculation

          k =-0.1000 0.1000 0.1000 (   271 PWs)   bands (ev):

    -2.5546  18.9631  21.7008  21.7009  24.9878  25.6506

          k =-0.3000 0.3000-0.1000 (   272 PWs)   bands (ev):

    -1.0106  13.5382  17.3867  23.1044  23.2986  25.2169

          k = 0.5000-0.5000 0.7000 (   262 PWs)   bands (ev):

     2.7653   6.4909  17.3253  19.9966  21.9266  23.3352

          k = 0.3000-0.3000 0.5000 (   266 PWs)   bands (ev):

     1.2706   8.6547  18.6726  19.2445  20.5861  25.2874

          k = 0.1000-0.1000 0.3000 (   273 PWs)   bands (ev):

    -1.7803  16.2722  19.2831  20.6350  23.4239  24.3421

          k =-0.1000 0.5000 0.1000 (   274 PWs)   bands (ev):

    -0.2457  14.1612  17.3536  17.8851  18.8677  22.7356

          k = 0.7000-0.3000 0.9000 (   261 PWs)   bands (ev):

     2.7640   9.9681  13.4779  14.5059  20.9384  24.9918

          k = 0.5000-0.1000 0.7000 (   260 PWs)   bands (ev):

     4.2382   7.8375  11.8602  15.4257  22.5824  25.6589

          k = 0.3000 0.1000 0.5000 (   264 PWs)   bands (ev):

     0.5148  11.4104  15.3581  18.8102  22.2204  25.6511

          k =-0.1000-1.1000 0.1000 (   259 PWs)   bands (ev):

     4.9104   8.8873  12.0741  15.4146  16.5780  20.8251

          k =-0.3000-0.9000-0.1000 (   261 PWs)   bands (ev):

     5.6303   9.0576   9.8544  13.4418  20.2589  24.4099

          k =-0.5000-0.7000-0.3000 (   258 PWs)   bands (ev):

     4.7369   5.2674  15.6060  16.4378  23.0638  23.2520

          k =-0.1000-0.7000 0.1000 (   263 PWs)   bands (ev):

     2.0180  12.6145  13.2604  16.0607  17.3171  21.4897

          k =-0.3000 0.3000 0.3000 (   268 PWs)   bands (ev):

    -0.2454  10.8042  20.6211  20.6211  23.9574  23.9574

          k = 0.5000-0.5000 1.1000 (   262 PWs)   bands (ev):

     2.0216   9.2725  13.3150  19.3545  21.4354  25.9008

          k = 0.3000-0.3000 0.9000 (   265 PWs)   bands (ev):

     6.1566   6.6526  10.4593  16.7235  18.5181  27.9483

          k =-0.3000-1.3000 0.3000 (   261 PWs)   bands (ev):

     3.5021   7.2071  14.5820  17.3726  19.2375  27.2740

          k =-0.5000-1.1000 0.1000 (   264 PWs)   bands (ev):

     6.8621   7.2990  10.6059  11.8762  24.8995  25.2176

          k = 0.5000-0.5000-0.5000 (   266 PWs)   bands (ev):

     4.0218   4.5242  21.0318  21.0319  21.6407  21.6407

     the Fermi energy is     9.1149 ev

!    total energy              =     -39.49765444 Ry
     Harris-Foulkes estimate   =     -39.49765477 Ry
     estimated scf accuracy    <       0.00000137 Ry

     total all-electron energy =      -485.640435 Ry

     The total energy is the sum of the following terms:

     one-electron contribution =       3.43369991 Ry
     hartree contribution      =       0.00737397 Ry
     xc contribution           =      -2.65001954 Ry
     ewald contribution        =      -5.59893357 Ry
     one-center paw contrib.   =     -34.68804968 Ry
     smearing contrib. (-TS)   =      -0.00172554 Ry

     convergence has been achieved in   3 iterations

     Writing output data file pwscf.save/

     init_run     :      0.14s CPU      0.14s WALL (       1 calls)
     electrons    :      0.29s CPU      0.29s WALL (       1 calls)

     Called by init_run:
     wfcinit      :      0.01s CPU      0.02s WALL (       1 calls)
     potinit      :      0.03s CPU      0.03s WALL (       1 calls)
     hinit0       :      0.09s CPU      0.09s WALL (       1 calls)

     Called by electrons:
     c_bands      :      0.18s CPU      0.18s WALL (       4 calls)
     sum_band     :      0.03s CPU      0.03s WALL (       4 calls)
     v_of_rho     :      0.01s CPU      0.01s WALL (       4 calls)
     newd         :      0.00s CPU      0.00s WALL (       4 calls)
     PAW_pot      :      0.09s CPU      0.10s WALL (       4 calls)
     mix_rho      :      0.00s CPU      0.00s WALL (       4 calls)

     Called by c_bands:
     init_us_2    :      0.01s CPU      0.01s WALL (     171 calls)
     cegterg      :      0.17s CPU      0.17s WALL (      76 calls)

     Called by sum_band:
     sum_band:bec :      0.00s CPU      0.00s WALL (      76 calls)
     addusdens    :      0.00s CPU      0.00s WALL (       4 calls)

     Called by *egterg:
     h_psi        :      0.15s CPU      0.15s WALL (     277 calls)
     s_psi        :      0.00s CPU      0.00s WALL (     277 calls)
     g_psi        :      0.00s CPU      0.00s WALL (     182 calls)
     cdiaghg      :      0.01s CPU      0.01s WALL (     239 calls)

     Called by h_psi:
     h_psi:pot    :      0.15s CPU      0.15s WALL (     277 calls)
     h_psi:calbec :      0.00s CPU      0.00s WALL (     277 calls)
     vloc_psi     :      0.14s CPU      0.14s WALL (     277 calls)
     add_vuspsi   :      0.00s CPU      0.00s WALL (     277 calls)

     General routines
     calbec       :      0.00s CPU      0.00s WALL (     353 calls)
     fft          :      0.00s CPU      0.00s WALL (      45 calls)
     ffts         :      0.00s CPU      0.00s WALL (       4 calls)
     fftw         :      0.15s CPU      0.15s WALL (    3080 calls)


     PWSCF        :      0.68s CPU      0.70s WALL


   This run was terminated on:  15: 9:25  10Nov2019            

=------------------------------------------------------------------------------=
   JOB DONE.
=------------------------------------------------------------------------------=
