
     Program PWSCF v.6.4.1 starts on 10Nov2019 at 15: 9:25 

     This program is part of the open-source Quantum ESPRESSO suite
     for quantum simulation of materials; please cite
         "P. Giannozzi et al., J. Phys.:Condens. Matter 21 395502 (2009);
         "P. Giannozzi et al., J. Phys.:Condens. Matter 29 465901 (2017);
          URL http://www.quantum-espresso.org", 
     in publications or presentations arising from this work. More details at
     http://www.quantum-espresso.org/quote

     Serial version
     Waiting for input...
     Reading input from standard input

     Current dimensions of program PWSCF are:
     Max number of different atomic species (ntypx) = 10
     Max number of k-points (npk) =  40000
     Max angular momentum in pseudopotentials (lmaxx) =  3
               file Al.pbe-nl-kjpaw_psl.1.0.0.UPF: wavefunction(s)  3S 3P renormalized

     G-vector sticks info
     --------------------
     sticks:   dense  smooth     PW     G-vecs:    dense   smooth      PW
     Sum         223     223     85                 2229     2229     531



     bravais-lattice index     =            2
     lattice parameter (alat)  =       7.5589  a.u.
     unit-cell volume          =     107.9734 (a.u.)^3
     number of atoms/cell      =            1
     number of atomic types    =            1
     number of electrons       =         3.00
     number of Kohn-Sham states=            6
     kinetic-energy cutoff     =      29.0000  Ry
     charge density cutoff     =     116.0000  Ry
     convergence threshold     =      1.0E-05
     mixing beta               =       0.7000
     number of iterations used =            8  plain     mixing
     Exchange-correlation      = SLA PW PBX PBC ( 1  4  3  4 0 0)

     celldm(1)=   7.558905  celldm(2)=   0.000000  celldm(3)=   0.000000
     celldm(4)=   0.000000  celldm(5)=   0.000000  celldm(6)=   0.000000

     crystal axes: (cart. coord. in units of alat)
               a(1) = (  -0.500000   0.000000   0.500000 )  
               a(2) = (   0.000000   0.500000   0.500000 )  
               a(3) = (  -0.500000   0.500000   0.000000 )  

     reciprocal axes: (cart. coord. in units 2 pi/alat)
               b(1) = ( -1.000000 -1.000000  1.000000 )  
               b(2) = (  1.000000  1.000000  1.000000 )  
               b(3) = ( -1.000000  1.000000 -1.000000 )  


     PseudoPot. # 1 for Al read from file:
     ./Al.pbe-nl-kjpaw_psl.1.0.0.UPF
     MD5 check sum: 8cf6d98cc7ef3f4b729b574060f3a10f
     Pseudo is Projector augmented-wave + core cor, Zval =  3.0
     Generated using "atomic" code by A. Dal Corso v.6.3
     Shape of augmentation charge: PSQ
     Using radial grid of 1135 points,  4 beta functions with: 
                l(1) =   0
                l(2) =   0
                l(3) =   1
                l(4) =   1
     Q(r) pseudized with 0 coefficients 


     atomic species   valence    mass     pseudopotential
        Al             3.00    26.98200     Al( 1.00)

     48 Sym. Ops., with inversion, found



   Cartesian axes

     site n.     atom                  positions (alat units)
         1           Al  tau(   1) = (   0.0000000   0.0000000   0.0000000  )

     number of k points=    19  Methfessel-Paxton smearing, width (Ry)=  0.1000
                       cart. coord. in units 2pi/alat
        k(    1) = (  -0.1000000   0.1000000   0.1000000), wk =   0.0320000
        k(    2) = (  -0.3000000   0.3000000  -0.1000000), wk =   0.0960000
        k(    3) = (   0.5000000  -0.5000000   0.7000000), wk =   0.0960000
        k(    4) = (   0.3000000  -0.3000000   0.5000000), wk =   0.0960000
        k(    5) = (   0.1000000  -0.1000000   0.3000000), wk =   0.0960000
        k(    6) = (  -0.1000000   0.5000000   0.1000000), wk =   0.0960000
        k(    7) = (   0.7000000  -0.3000000   0.9000000), wk =   0.1920000
        k(    8) = (   0.5000000  -0.1000000   0.7000000), wk =   0.1920000
        k(    9) = (   0.3000000   0.1000000   0.5000000), wk =   0.1920000
        k(   10) = (  -0.1000000  -1.1000000   0.1000000), wk =   0.0960000
        k(   11) = (  -0.3000000  -0.9000000  -0.1000000), wk =   0.1920000
        k(   12) = (  -0.5000000  -0.7000000  -0.3000000), wk =   0.0960000
        k(   13) = (  -0.1000000  -0.7000000   0.1000000), wk =   0.0960000
        k(   14) = (  -0.3000000   0.3000000   0.3000000), wk =   0.0320000
        k(   15) = (   0.5000000  -0.5000000   1.1000000), wk =   0.0960000
        k(   16) = (   0.3000000  -0.3000000   0.9000000), wk =   0.0960000
        k(   17) = (  -0.3000000  -1.3000000   0.3000000), wk =   0.0960000
        k(   18) = (  -0.5000000  -1.1000000   0.1000000), wk =   0.0960000
        k(   19) = (   0.5000000  -0.5000000  -0.5000000), wk =   0.0160000

     Dense  grid:     2229 G-vectors     FFT dimensions: (  20,  20,  20)

     Estimated max dynamical RAM per process >       3.83 MB

     Initial potential from superposition of free atoms

     starting charge    2.99771, renormalised to    3.00000
     Starting wfcs are    4 randomized atomic wfcs +    2 random wfcs

     total cpu time spent up to now is        0.4 secs

     Self-consistent Calculation

     iteration #  1     ecut=    29.00 Ry     beta= 0.70
     Davidson diagonalization with overlap
     ethr =  1.00E-02,  avg # of iterations =  4.7

     Threshold (ethr) on eigenvalues was too large:
     Diagonalizing with lowered threshold

     Davidson diagonalization with overlap
     ethr =  1.91E-04,  avg # of iterations =  1.9

     total cpu time spent up to now is        0.6 secs

     total energy              =     -39.50111483 Ry
     Harris-Foulkes estimate   =     -39.50260895 Ry
     estimated scf accuracy    <       0.00566096 Ry

     iteration #  2     ecut=    29.00 Ry     beta= 0.70
     Davidson diagonalization with overlap
     ethr =  1.89E-04,  avg # of iterations =  1.0

     total cpu time spent up to now is        0.7 secs

     total energy              =     -39.50110146 Ry
     Harris-Foulkes estimate   =     -39.50120010 Ry
     estimated scf accuracy    <       0.00039835 Ry

     iteration #  3     ecut=    29.00 Ry     beta= 0.70
     Davidson diagonalization with overlap
     ethr =  1.33E-05,  avg # of iterations =  1.7

     total cpu time spent up to now is        0.7 secs

     End of self-consistent calculation

          k =-0.1000 0.1000 0.1000 (   286 PWs)   bands (ev):

    -2.8507  17.7265  20.3447  20.3447  23.3166  23.8341

          k =-0.3000 0.3000-0.1000 (   288 PWs)   bands (ev):

    -1.3808  12.5308  16.1340  21.5908  21.8510  23.6244

          k = 0.5000-0.5000 0.7000 (   280 PWs)   bands (ev):

     2.2266   5.7665  16.1024  18.6293  20.4402  21.8059

          k = 0.3000-0.3000 0.5000 (   285 PWs)   bands (ev):

     0.7954   7.8421  17.3518  18.0356  19.0777  23.6755

          k = 0.1000-0.1000 0.3000 (   293 PWs)   bands (ev):

    -2.1138  15.1515  17.9476  19.3414  21.8825  22.6506

          k =-0.1000 0.5000 0.1000 (   296 PWs)   bands (ev):

    -0.6518  13.1405  16.0771  16.7636  17.5242  21.0396

          k = 0.7000-0.3000 0.9000 (   286 PWs)   bands (ev):

     2.2231   9.1230  12.5490  13.2083  19.5601  23.2698

          k = 0.5000-0.1000 0.7000 (   282 PWs)   bands (ev):

     3.6380   7.0734  10.8713  14.2112  21.0772  24.0717

          k = 0.3000 0.1000 0.5000 (   286 PWs)   bands (ev):

     0.0737  10.4967  14.2037  17.4852  20.7856  23.9438

          k =-0.1000-1.1000 0.1000 (   282 PWs)   bands (ev):

     4.2835   8.0647  11.1286  14.1997  15.4181  19.2220

          k =-0.3000-0.9000-0.1000 (   282 PWs)   bands (ev):

     4.9770   8.3185   8.9056  12.2819  18.9116  22.7156

          k =-0.5000-0.7000-0.3000 (   280 PWs)   bands (ev):

     4.1902   4.5197  14.5723  15.0880  21.4707  21.8038

          k =-0.1000-0.7000 0.1000 (   286 PWs)   bands (ev):

     1.5093  11.7084  12.2079  14.8256  16.1177  19.8514

          k =-0.3000 0.3000 0.3000 (   287 PWs)   bands (ev):

    -0.6515   9.8992  19.2390  19.2391  22.3968  22.8197

          k = 0.5000-0.5000 1.1000 (   283 PWs)   bands (ev):

     1.5130   8.4493  12.2435  17.9963  19.9790  24.3205

          k = 0.3000-0.3000 0.9000 (   280 PWs)   bands (ev):

     5.5442   5.8763   9.5140  15.4632  17.2066  26.1556

          k =-0.3000-1.3000 0.3000 (   285 PWs)   bands (ev):

     2.9322   6.4555  13.4955  16.0920  17.8754  25.5875

          k =-0.5000-1.1000 0.1000 (   280 PWs)   bands (ev):

     6.2168   6.5148   9.8171  10.6424  23.2766  23.6915

          k = 0.5000-0.5000-0.5000 (   272 PWs)   bands (ev):

     3.5062   3.8051  19.8461  19.8461  19.9549  19.9549

     the Fermi energy is     8.2929 ev

!    total energy              =     -39.50112037 Ry
     Harris-Foulkes estimate   =     -39.50112086 Ry
     estimated scf accuracy    <       0.00000136 Ry

     total all-electron energy =      -485.643901 Ry

     The total energy is the sum of the following terms:

     one-electron contribution =       3.24110755 Ry
     hartree contribution      =       0.00641573 Ry
     xc contribution           =      -2.60756341 Ry
     ewald contribution        =      -5.45896024 Ry
     one-center paw contrib.   =     -34.68031692 Ry
     smearing contrib. (-TS)   =      -0.00180307 Ry

     convergence has been achieved in   3 iterations

     Writing output data file pwscf.save/

     init_run     :      0.15s CPU      0.16s WALL (       1 calls)
     electrons    :      0.33s CPU      0.34s WALL (       1 calls)

     Called by init_run:
     wfcinit      :      0.02s CPU      0.02s WALL (       1 calls)
     potinit      :      0.03s CPU      0.04s WALL (       1 calls)
     hinit0       :      0.09s CPU      0.09s WALL (       1 calls)

     Called by electrons:
     c_bands      :      0.21s CPU      0.21s WALL (       4 calls)
     sum_band     :      0.04s CPU      0.04s WALL (       4 calls)
     v_of_rho     :      0.01s CPU      0.01s WALL (       4 calls)
     newd         :      0.00s CPU      0.00s WALL (       4 calls)
     PAW_pot      :      0.10s CPU      0.11s WALL (       4 calls)
     mix_rho      :      0.00s CPU      0.00s WALL (       4 calls)

     Called by c_bands:
     init_us_2    :      0.01s CPU      0.01s WALL (     171 calls)
     cegterg      :      0.20s CPU      0.20s WALL (      76 calls)

     Called by sum_band:
     sum_band:bec :      0.00s CPU      0.00s WALL (      76 calls)
     addusdens    :      0.00s CPU      0.00s WALL (       4 calls)

     Called by *egterg:
     h_psi        :      0.18s CPU      0.19s WALL (     273 calls)
     s_psi        :      0.01s CPU      0.01s WALL (     273 calls)
     g_psi        :      0.00s CPU      0.00s WALL (     178 calls)
     cdiaghg      :      0.01s CPU      0.01s WALL (     235 calls)

     Called by h_psi:
     h_psi:pot    :      0.18s CPU      0.19s WALL (     273 calls)
     h_psi:calbec :      0.00s CPU      0.00s WALL (     273 calls)
     vloc_psi     :      0.17s CPU      0.18s WALL (     273 calls)
     add_vuspsi   :      0.00s CPU      0.00s WALL (     273 calls)

     General routines
     calbec       :      0.00s CPU      0.00s WALL (     349 calls)
     fft          :      0.00s CPU      0.00s WALL (      45 calls)
     ffts         :      0.00s CPU      0.00s WALL (       4 calls)
     fftw         :      0.19s CPU      0.19s WALL (    3072 calls)


     PWSCF        :      0.72s CPU      0.74s WALL


   This run was terminated on:  15: 9:26  10Nov2019            

=------------------------------------------------------------------------------=
   JOB DONE.
=------------------------------------------------------------------------------=
